<?xml version="1.0" encoding="UTF-8" standalone="no"?>
<!-- Created with Inkscape (http://www.inkscape.org/) -->

<svg
   version="1.1"
   id="svg48"
   width="391.04001"
   height="320"
   viewBox="0 0 391.04001 320"
   sodipodi:docname="hirn.svg"
   inkscape:version="1.2.2 (b0a8486541, 2022-12-01)"
   xmlns:inkscape="http://www.inkscape.org/namespaces/inkscape"
   xmlns:sodipodi="http://sodipodi.sourceforge.net/DTD/sodipodi-0.dtd"
   xmlns="http://www.w3.org/2000/svg"
   xmlns:svg="http://www.w3.org/2000/svg">
  <defs
     id="defs52" />
  <sodipodi:namedview
     id="namedview50"
     pagecolor="#ffffff"
     bordercolor="#000000"
     borderopacity="0.25"
     inkscape:showpageshadow="2"
     inkscape:pageopacity="0.0"
     inkscape:pagecheckerboard="0"
     inkscape:deskcolor="#d1d1d1"
     showgrid="false"
     inkscape:zoom="3.209375"
     inkscape:cx="130.71081"
     inkscape:cy="147.8481"
     inkscape:window-width="2560"
     inkscape:window-height="1382"
     inkscape:window-x="0"
     inkscape:window-y="29"
     inkscape:window-maximized="1"
     inkscape:current-layer="g54" />
  <g
     inkscape:groupmode="layer"
     inkscape:label="Image"
     id="g54">
    <path
       style="fill:#000000;stroke-width:0.64"
       d="m 240.12801,318.592 c -0.4224,-0.4224 -0.768,-1.26307 -0.768,-1.86816 0,-1.4006 -8.84905,-9.52384 -10.37481,-9.52384 -0.62985,0 -1.75119,-0.606 -2.49186,-1.34667 l -1.34667,-1.34666 0.35593,-1.77962 0.35591,-1.77961 -5.28902,-9.51372 c -5.41217,-9.73524 -6.21419,-11.18271 -13.24513,-23.90456 l -4.06256,-7.35082 -7.90009,-9.70014 -7.9001,-9.70015 -1.63855,-0.31322 c -0.9012,-0.17228 -3.12007,0.0829 -4.9308,0.56707 -8.06152,2.15554 -25.45406,2.57114 -40.23837,0.96152 l -6.22611,-0.67786 -5.93389,-2.31426 c -3.26364,-1.27285 -7.66189,-2.95788 -9.77389,-3.74451 -4.82218,-1.79608 -6.25707,-2.56788 -10.24,-5.50792 -1.76,-1.29917 -5.78061,-3.5937 -8.934679,-5.09898 l -5.734675,-2.73685 -3.581773,-3.59652 -3.581767,-3.59652 -1.659104,-4.16575 c -0.912505,-2.29116 -1.818137,-5.63984 -2.012518,-7.4415 l -0.353408,-3.27576 -2.341152,-4.2592 -2.341152,-4.2592 -2.324468,-0.97123 c -3.401235,-1.42113 -7.022137,-2.12952 -14.025603,-2.74394 l -6.2297,-0.54655 -4.240578,-2.16843 C 38.805557,178.5917 29.751489,171.92669 19.541247,161.64266 L 11.84,153.88575 9.9905628,150.38288 C 8.9733724,148.45629 7.0866127,145.44 5.7977637,143.68 4.5089148,141.92 2.8211617,139.438 2.0472011,138.16446 L 0.64000002,135.84892 0.6540557,130.80446 0.66811138,125.76 1.8559043,123.2 c 0.6532861,-1.408 2.2050422,-3.52737 3.448347,-4.70972 l 2.260554,-2.14972 -0.6713101,-1.92572 -0.67131,-1.92573 0.3505714,-6.3621 0.3505709,-6.362095 2.9464936,-5.937075 C 15.899768,81.677722 25.6682,69.942714 38.970195,58.868986 51.306817,48.598918 51.942279,48.038382 59.611513,40.661428 l 7.45151,-7.16753 5.028492,-2.611682 C 74.85718,29.44579 78.943228,27.799759 81.171618,27.22437 86.931881,25.737018 91.071823,23.759727 97.101775,19.615915 99.995747,17.627162 102.50307,16 102.67361,16 c 0.17053,0 1.78036,-0.866916 3.57738,-1.926481 1.79703,-1.059564 7.6417,-3.659535 12.98817,-5.7777129 L 128.96,4.4445728 134.25901,3.5135926 139.558,2.5826125 153.67046,2.2563284 167.78292,1.9300443 169.01146,2.5875398 170.24,3.2450352 v 1.5933229 1.5933232 l -1.54551,0.5876051 -1.54553,0.5876058 -14.0074,-0.0352 -14.00741,-0.0352 -3.80707,0.7413241 c -3.35438,0.6531731 -10.672,3.2351877 -20.29451,7.1608957 -1.67609,0.683796 -4.49676,2.09782 -6.26816,3.142277 -1.7714,1.044455 -3.37245,1.899011 -3.55789,1.899011 -0.18543,0 -2.11676,1.250624 -4.29184,2.779165 -6.380841,4.484155 -10.679158,6.651353 -16.123529,8.129433 -2.81113,0.763188 -7.303175,2.520263 -9.982317,3.904611 l -4.871168,2.516996 -7.608833,7.387337 c -4.184858,4.063037 -9.076438,8.58774 -10.870179,10.054898 -1.793741,1.467158 -6.033098,4.916608 -9.420792,7.665443 -11.977089,9.718424 -22.1477,22.017413 -27.771709,33.583416 l -2.401458,4.938701 -0.243717,5.41869 -0.243718,5.41869 2.503728,-2.21869 2.503727,-2.21869 -0.275647,-4.62637 -0.275647,-4.626372 0.847415,-2.093632 c 2.309829,-5.706669 9.744127,-13.119028 16.204201,-16.156384 4.133026,-1.943239 11.369212,-4.696954 15.0965,-5.744948 l 2.861536,-0.804563 1.102146,-3.712678 c 0.606181,-2.041978 2.468247,-5.756218 4.137925,-8.253867 1.669677,-2.497653 3.77402,-5.686655 4.676317,-7.086672 C 62.812229,51.549411 74.51901,39.899547 76.908706,38.663788 80.007087,37.061554 87.453077,34.56 89.123829,34.56 h 1.608961 l 1.037721,-1.583761 1.037722,-1.583761 5.595885,-2.671001 C 101.48185,27.252427 107.744,24.756842 112.32,23.175732 l 8.32,-2.874745 10.19879,-0.318307 10.1988,-0.318307 6.4412,0.848679 6.44121,0.84868 2.8725,1.816379 2.87249,1.816379 0.96751,-3.057245 L 161.6,18.88 l 4.32,-0.189242 4.32,-0.189241 -6.4e-4,20.669241 -6.4e-4,20.669242 -4.72046,2.122338 c -2.59625,1.167286 -5.73945,3.055704 -6.98488,4.196478 -1.24544,1.140774 -2.70547,2.440166 -3.24451,2.887533 l -0.98009,0.813389 -12.88589,-5.594695 -12.88589,-5.594694 0.37552,-2.001683 0.37552,-2.001684 -2.90325,-3.989902 c -1.59678,-2.194447 -3.06231,-4.78528 -3.25674,-5.757406 l -0.3535,-1.767502 1.17279,-1.390825 c 2.01495,-2.389576 11.32434,-10.453908 13.21949,-11.451495 l 1.80672,-0.951035 1.81792,0.399283 c 0.99986,0.219606 3.42402,1.804736 5.38702,3.522512 l 3.56909,3.123229 4.80627,-2.006157 4.80627,-2.006156 v -1.146683 -1.146684 l -2.4,-1.564776 c -1.32,-0.860627 -4.128,-2.041909 -6.24,-2.625072 l -3.84,-1.060295 -9.15761,-0.345749 -9.15761,-0.345749 -4.85647,0.783433 c -6.71978,1.083998 -22.58873,6.895333 -26.588428,9.736846 -0.968,0.687699 -1.76,1.796617 -1.76,2.464263 0,1.564057 -1.789209,2.508784 -3.964,2.093046 l -1.710381,-0.326959 -4.362809,1.434041 c -2.399546,0.788722 -5.676135,2.387008 -7.281312,3.551747 -4.229908,3.069279 -12.924154,12.331165 -15.016005,15.996388 -0.989,1.732871 -2.292639,3.726675 -2.896975,4.430675 -2.736037,3.187251 -5.934997,12.583181 -6.692572,19.657312 -0.536285,5.007744 -0.959483,5.799891 -2.948324,5.518682 L 48.960001,89.28 l 0.138131,-5.227168 0.13813,-5.227174 -4.93813,1.900992 c -2.715972,1.045542 -7.007056,2.912204 -9.535744,4.148134 l -4.597613,2.247142 -3.556655,3.585133 c -5.71045,5.756173 -7.359248,10.707541 -5.248116,15.760201 l 0.880004,2.10614 3.069721,2.0333 c 1.688347,1.11832 3.380345,2.0157 3.759997,1.9942 0.379651,-0.0215 1.554275,-1.22587 2.610275,-2.67635 1.056,-1.45048 2.840803,-3.01151 3.96623,-3.46895 l 2.046229,-0.83171 0.966578,0.96657 0.966576,0.96658 -0.421776,1.10148 c -0.231977,0.60581 -2.35933,3.34439 -4.727452,6.08573 -2.368122,2.74133 -4.974086,6.34133 -5.791031,8 l -1.485354,3.01575 0.03379,5.12 c 0.01859,2.816 0.372279,6.272 0.785987,7.68 l 0.752197,2.56 3.922393,4.93857 c 2.157317,2.71622 4.467623,5.11163 5.134014,5.32313 l 1.211617,0.38456 v 1.86468 1.86468 l -1.55364,0.38994 c -2.13514,0.53588 -2.774848,0.0502 -7.647562,-5.80556 l -4.260432,-5.12 -1.220285,-3.25332 c -0.671157,-1.78932 -1.519392,-5.40381 -1.884967,-8.0322 l -0.664682,-4.77889 0.874985,-3.31691 c 0.481242,-1.82431 1.602071,-4.61782 2.49073,-6.2078 L 26.789893,116.48 h -0.865924 c -0.476259,0 -2.222592,-1.03556 -3.88074,-2.30126 l -3.014816,-2.30126 -5.743651,5.66126 L 7.54111,123.2 6.3446108,125.76 c -0.6580747,1.408 -1.2028244,3.02406 -1.210555,3.59125 l -0.014056,1.03125 1.4789242,-0.28271 1.4789236,-0.28272 0.686153,0.85147 c 0.3773843,0.4683 1.1626502,2.97172 1.7450364,5.56314 0.582385,2.59143 1.729969,6.36324 2.550186,8.3818 l 1.491303,3.67012 3.859307,4.7382 c 8.2338,10.10891 21.797448,20.61199 35.660245,27.61368 l 3.830077,1.93447 7.988787,0.58955 c 4.393837,0.32426 8.646305,0.42453 9.449927,0.22284 l 1.461133,-0.36672 v -3.11596 -3.11595 l 2.019251,-4.39186 c 1.110586,-2.41552 2.451219,-4.89585 2.979187,-5.51185 l 0.959949,-1.12 h 1.752333 1.752333 l 0.358336,0.93381 0.358336,0.93381 -2.849862,5.73532 c -1.567424,3.15442 -2.844929,6.40621 -2.838893,7.22619 0.02125,2.88597 2.415353,10.7021 4.311974,14.07737 l 1.918106,3.4135 0.364269,3.78696 0.364275,3.78695 1.987066,4.03631 1.987065,4.0363 2.688141,2.17704 c 3.393485,2.74829 6.682312,4.43447 7.574162,3.88328 1.37579,-0.8503 9.30872,-0.30445 13.99397,0.96288 8.53996,2.31 18.15085,4.44074 21.887,4.85235 l 3.64699,0.40179 1.63301,1.28452 c 1.95516,1.53793 2.11152,3.45049 0.35878,4.38853 l -1.27422,0.68194 -1.89399,-0.97943 c -1.0417,-0.53868 -2.70031,-0.98393 -3.68578,-0.98945 -2.36123,-0.0132 -12.56948,-2.17223 -19.39179,-4.10131 -2.992,-0.84602 -6.304,-1.72789 -7.36,-1.95972 l -1.92,-0.42149 3.77029,2.64962 c 2.07366,1.45729 5.52966,3.32057 7.68,4.14064 2.15035,0.82007 6.63678,2.53744 9.96985,3.81638 l 6.06015,2.32535 5.77985,0.65408 c 10.94052,1.23806 16.68299,1.38042 25.61348,0.63495 10.78022,-0.89988 14.27238,-1.6947 16.13582,-3.67252 l 1.40944,-1.49595 h 1.63925 c 0.90158,0 2.15963,0.32499 2.79567,0.7222 l 1.15642,0.7222 6.22534,-1.06116 c 3.42395,-0.58362 6.47728,-0.90544 6.78521,-0.71513 0.30791,0.1903 1.03157,2.41999 1.60811,4.95484 l 1.04825,4.60883 3.64144,4.45155 3.64144,4.45155 0.21683,-1.11885 0.21682,-1.11886 -2.76655,-3.28097 -2.76656,-3.28097 -1.07264,-4.18762 -1.07263,-4.18761 0.78367,-0.81845 0.78367,-0.81845 36.4387,1.00707 36.43869,1.00708 21.12,1.94714 21.12,1.94714 4,-0.4267 4,-0.42671 v -1.2758 c 0,-0.70169 -2.464,-4.40572 -5.47556,-8.23116 l -5.47556,-6.95536 -2.14785,-0.70886 c -2.31008,-0.76239 -2.90103,-1.66686 -2.90103,-4.44009 v -1.76846 l 1.17039,-1.0592 c 1.48261,-1.34174 3.88239,-1.35506 5.77129,-0.032 l 1.4665,1.02717 -0.18268,2.53013 -0.18269,2.53013 5.0986,6.66393 5.09859,6.66393 1.29759,0.0188 c 0.71369,0.0103 1.93769,0.4671 2.72,1.01506 l 1.42241,0.99629 v 2.18896 2.18895 l -1.53223,1.00396 -1.53223,1.00396 -1.61587,-0.40557 -1.61588,-0.40555 -0.21189,1.47497 -0.2119,1.47496 -1.72696,0.96617 -1.72697,0.96617 -2.07447,-1.53372 -2.07447,-1.53372 -8.29722,-0.85907 c -4.56346,-0.4725 -8.42322,-0.73308 -8.57723,-0.57907 -0.79167,0.79167 1.45487,2.79722 5.06353,4.52034 l 4.05379,1.93568 1.23049,3.57268 1.23051,3.57268 1.86909,0.82734 1.86909,0.82734 -0.2365,2.47998 -0.23651,2.47998 h 1.10063 c 0.60534,0 1.48333,0.54639 1.95109,1.21421 l 0.85047,1.21422 3.27588,-7.1165 3.27589,-7.11649 -0.58707,-1.54411 -0.58707,-1.5441 0.99176,-1.51362 0.99176,-1.51361 h 1.77724 c 2.20268,0 3.31325,1.05014 3.31325,3.13298 v 1.59698 l -1.52837,1.63502 c -0.8406,0.89926 -3.84302,6.64258 -6.67204,12.76295 l -5.14368,11.12792 -3.40796,1.88069 c -1.87437,1.03438 -8.2738,4.34331 -14.22094,7.35318 l -10.813,5.47248 -20.64604,-0.11862 -20.64605,-0.11862 -0.41874,0.67752 c -0.53955,0.87303 -4.36408,0.88062 -5.23431,0.0104 l -0.66712,-0.66712 -0.65652,0.82712 -0.65651,0.82712 1.04686,10.28528 1.04686,10.28527 1.16303,1.77501 1.16303,1.77501 -0.39213,1.56235 -0.39212,1.56236 -1.57657,0.59941 c -0.86711,0.32967 -1.98898,0.44115 -2.49304,0.24772 l -0.91648,-0.35168 -0.7116,1.32963 -0.7116,1.32964 h -2.08948 c -1.14922,0 -2.43508,-0.3456 -2.85748,-0.768 z m 3.99511,-1.09231 0.35865,-0.58032 -1.28088,0.33496 c -1.49439,0.39079 -1.6833,0.82567 -0.35866,0.82567 0.50723,0 1.08363,-0.26114 1.28089,-0.58031 z m 1.64604,-6.15679 0.86544,-1.6171 -1.06949,-10.32388 -1.06949,-10.32388 -1.0539,-1.16454 -1.05389,-1.16454 0.37044,-2.28273 0.37043,-2.28274 -10.36435,-11.6334 c -5.70039,-6.39837 -11.07652,-11.98821 -11.94697,-12.42187 l -1.58262,-0.78846 -1.07751,0.97513 -1.07751,0.97514 -2.13987,-0.20502 -2.13986,-0.20501 -0.79665,-2.4402 c -0.43816,-1.3421 -2.67487,-4.84552 -4.97047,-7.78537 l -4.17382,-5.34518 -0.71789,-3.57462 -0.71788,-3.57463 h -1.08491 c -1.11938,0 -8.00518,1.20067 -9.50384,1.65718 l -0.84547,0.25754 1.26078,1.76264 c 0.69343,0.96945 4.32452,5.50664 8.0691,10.08264 l 6.80831,8.32 11.58325,20.84565 11.58326,20.84565 1.35311,0.59435 1.35312,0.59435 0.20232,1.75807 0.20232,1.75806 4.10898,3.68194 c 3.48348,3.12142 4.90855,3.93298 8.01823,4.56621 0.20452,0.0417 0.7613,-0.65197 1.2373,-1.54138 z m -9.60915,-1.16371 c 0,-0.12144 -0.648,-0.76944 -1.44,-1.44 l -1.44,-1.21919 1.21919,1.44 c 1.14574,1.35324 1.66081,1.73135 1.66081,1.21919 z m 45.28,-24.56962 c -1.672,-0.13184 -4.408,-0.13184 -6.08,0 -1.672,0.13184 -0.304,0.23971 3.04,0.23971 3.344,0 4.712,-0.10787 3.04,-0.23971 z m 10.08,-2.08957 -0.39554,-0.64 -18.04224,0.0757 -18.04222,0.0757 1.92,0.48856 c 1.056,0.2687 9.353,0.52263 18.43777,0.56428 l 16.51777,0.0757 z m 18.79401,-6.72951 11.92599,-6.08951 1.02935,-1.80441 1.02936,-1.80442 -1.44672,0.27657 -1.44672,0.27655 -1.49564,-1.50263 c -0.8226,-0.82645 -3.33165,-2.28164 -5.57567,-3.23374 l -4.08004,-1.7311 1.03304,1.1415 c 2.56497,2.83426 0.34117,6.28891 -3.76696,5.85195 -0.704,-0.0749 -1.68401,-0.46783 -2.17781,-0.87323 l -0.89781,-0.73709 -18.94219,-0.21274 -18.94219,-0.21275 -9.92,-3.08526 -9.92,-3.08527 -2.29637,0.31546 -2.29636,0.31547 -1.06364,-1.06364 c -1.25817,-1.25816 -1.38831,-3.58912 -0.26363,-4.72212 l 0.8,-0.80591 -1.12144,0.42693 c -0.61678,0.23482 -1.83639,0.2475 -2.71025,0.0282 l -1.58882,-0.39877 -0.38417,-1.53064 -0.38416,-1.53064 0.75997,-1.42002 0.75997,-1.42003 3.38124,0.3974 3.38123,0.3974 7.86465,-1.60176 c 4.32556,-0.88096 7.95211,-1.6892 8.05899,-1.79609 0.47267,-0.47267 -10.42735,-2.78371 -11.19822,-2.37427 -0.47357,0.25153 -1.57709,0.32044 -2.45227,0.15313 l -1.59126,-0.30419 -0.67852,-1.48918 -0.67851,-1.48918 1.02754,-1.56823 1.02755,-1.56823 -5.89676,-0.3577 c -3.24322,-0.19674 -11.1243,-0.49183 -17.51352,-0.65578 l -11.61676,-0.29808 0.64048,2.31965 c 0.35227,1.27581 1.62495,3.60895 2.82817,5.18476 l 2.18767,2.86511 1.73681,0.18518 c 1.90035,0.20261 3.36039,1.75076 3.36039,3.56321 0,0.63672 0.41143,1.15768 0.91428,1.15768 1.40675,0 2.92572,1.84027 2.92572,3.54461 v 1.53317 l 10.34139,11.86111 10.3414,11.86111 h 22.86024 22.86024 l 0.79673,-0.95999 c 0.4382,-0.528 1.61883,-0.96 2.62361,-0.96 h 1.82688 l 0.98927,1.50982 0.98927,1.50982 -0.40298,1.05018 c -0.22165,0.5776 -0.19488,1.05018 0.0595,1.05018 0.25436,0 5.82917,-2.74028 12.38847,-6.08951 z m -47.7274,4.33635 c -2.18536,-0.12459 -5.92936,-0.12552 -8.32,-0.002 -2.39064,0.12347 -0.60261,0.22541 3.97339,0.22653 4.576,0.001 6.53197,-0.0999 4.34661,-0.2245 z m -28.34661,-11.92848 c 0,-0.13289 -0.504,-0.63689 -1.12,-1.12 l -1.12,-0.87836 0.87836,1.12 c 0.83607,1.06608 1.36164,1.40511 1.36164,0.87836 z m 36.96746,-4.67809 c -0.6119,-0.16019 -1.7639,-0.166 -2.56,-0.0129 l -1.44746,0.27834 2.56,0.0129 c 1.408,0.007 2.05936,-0.11815 1.44746,-0.27833 z m 34.28627,-2.39411 c 0.19287,-0.50261 1.15968,-1.03547 2.14847,-1.18411 0.98879,-0.14865 -2.46033,-0.31342 -7.66472,-0.36616 l -9.46252,-0.0959 -1.57282,1.03055 -1.57282,1.03055 -1.62642,-0.4082 -1.62644,-0.40822 -0.70901,-1.55612 -0.70902,-1.55612 1.06554,-1.62623 1.06554,-1.62621 h -11.81699 -11.81698 l -0.39554,0.64 c -0.55232,0.89368 -4.38263,0.80138 -5.312,-0.128 -0.4224,-0.4224 -0.768,-1.55807 -0.768,-2.52371 v -1.75571 l 1.44,-1.05554 1.44,-1.05555 -1.28,0.33318 c -0.704,0.18325 -3.872,0.82063 -7.04,1.41641 -3.168,0.59577 -6.01749,1.32039 -6.3322,1.61026 l -0.57219,0.52704 1.31303,-0.34336 1.31301,-0.34336 1.25918,1.25917 c 0.69254,0.69255 1.36883,1.58817 1.50287,1.99028 0.13404,0.40211 4.56204,2.13689 9.84,3.85505 l 9.5963,3.12394 18.97152,0.065 18.97153,0.065 z M 315.4212,258.4 c -0.0465,-0.792 0.0214,-1.728 0.15092,-2.08 0.12946,-0.352 -0.15934,-2.02445 -0.64178,-3.71655 l -0.87715,-3.07656 -3.26659,-1.66855 -3.26659,-1.66855 -2.476,0.13552 -2.47601,0.13551 -1.20399,-1.0896 c -1.46634,-1.32702 -1.55819,-3.6456 -0.19829,-5.0055 l 1.00572,-1.00572 h -0.97479 c -0.53614,0 -5.81271,-0.41336 -11.72572,-0.91857 -5.91301,-0.50522 -17.60781,-1.09811 -25.98845,-1.31753 l -15.23753,-0.39895 1.46825,1.47752 1.46824,1.47753 8.96928,2.27416 8.96929,2.27415 0.20155,1.38322 0.20154,1.38323 -1.48154,0.3609 c -0.81486,0.1985 -3.28926,0.72481 -5.49868,1.1696 l -4.01713,0.8087 1.91122,1.41302 1.9112,1.41302 h 9.02596 9.02595 l -3.08003,-3.50668 c -1.69403,-1.92868 -3.86191,-3.78216 -4.81752,-4.11886 l -1.73749,-0.61218 -0.39693,-1.58152 -0.39694,-1.58154 0.71693,-1.33961 0.71694,-1.33961 h 2.08948 c 2.57785,0 3.62549,0.97807 3.62549,3.38476 v 1.84876 l 4.49843,4.90324 4.49843,4.90324 -0.27851,1.12 -0.27852,1.12 h 1.46172 c 0.80394,0 1.82025,0.432 2.25845,0.96 l 0.79673,0.96 10.32163,0.0268 10.32164,0.0268 2.24,1.22635 c 1.232,0.67449 2.30877,1.23842 2.39283,1.25317 0.0841,0.0148 0.11482,-0.62117 0.0684,-1.41317 z m -8.68188,0.33233 c -1.48538,-0.13422 -4.07738,-0.13582 -5.76,-0.004 -1.68262,0.13227 -0.46731,0.2421 2.70069,0.24404 3.168,0.002 4.54469,-0.10627 3.05931,-0.24049 z m -82.09931,-0.41397 c 0,-0.13289 -0.504,-0.63689 -1.12,-1.12 l -1.12,-0.87836 0.87836,1.12 c 0.83607,1.06608 1.36164,1.40511 1.36164,0.87836 z m -8.32,-10.24989 c 0,-0.13834 -0.44696,-0.42304 -0.99325,-0.63267 l -0.99324,-0.38114 0.39102,0.63267 c 0.37584,0.60813 1.59547,0.89949 1.59547,0.38114 z m 49.6,-2.30847 c 0.21755,-0.352 0.0905,-0.64 -0.28223,-0.64 -0.37277,0 -0.67777,0.288 -0.67777,0.64 0,0.352 0.127,0.64 0.28222,0.64 0.15523,0 0.46023,-0.288 0.67778,-0.64 z M 155.84,240.59153 c -4.928,-0.26117 -11.53957,-0.77753 -14.69237,-1.14748 -3.15281,-0.36994 -5.86481,-0.5402 -6.02667,-0.37834 -0.16186,0.16186 0.11371,0.31905 0.61237,0.34932 0.49867,0.0303 3.78667,0.42032 7.30667,0.86679 3.52,0.44648 9.856,0.80565 14.08,0.79817 l 7.68,-0.0136 -8.96,-0.47485 z m 19.2,-0.55684 2.56,-0.53154 -6.08,0.33761 c -3.344,0.18568 -6.2,0.44147 -6.34666,0.56842 -0.51779,0.44818 7.34113,0.1499 9.86666,-0.37449 z m 146.70668,-0.42136 c -0.21267,-0.21266 -0.76467,-0.2354 -1.22667,-0.0505 l -0.84,0.33614 1.22667,0.0505 c 0.67466,0.0278 1.05266,-0.12347 0.84,-0.33614 z m -139.76666,-0.94355 c 1.35301,-0.3757 2.35102,-0.79207 2.21782,-0.92528 -0.13321,-0.13321 -1.67222,0.15003 -3.42002,0.62943 -1.7478,0.47939 -2.74582,0.89576 -2.21782,0.92528 0.528,0.0295 2.06701,-0.25374 3.42002,-0.62943 z m 126.32666,-0.33645 c -0.21267,-0.21266 -0.76468,-0.2354 -1.22667,-0.0505 l -0.84,0.33614 1.22667,0.0505 c 0.67466,0.0278 1.05266,-0.12347 0.84,-0.33614 z M 124.8256,234.82909 c -2.27392,-1.05169 -4.86592,-2.05811 -5.76,-2.23649 -0.89408,-0.17839 -0.3296,0.22727 1.2544,0.90144 1.584,0.67418 3.888,1.68255 5.12,2.24082 1.232,0.55827 2.528,1.0131 2.88,1.01072 0.352,-0.003 -1.22048,-0.86479 -3.4944,-1.91649 z m 149.25441,0.87924 c -0.792,-0.15255 -2.088,-0.15255 -2.88,0 -0.792,0.15255 -0.144,0.27736 1.44,0.27736 1.584,0 2.232,-0.12481 1.44,-0.27736 z m -22.72,-0.6295 c -0.616,-0.16097 -1.624,-0.16097 -2.24,0 -0.616,0.16098 -0.112,0.29269 1.12,0.29269 1.232,0 1.736,-0.13171 1.12,-0.29269 z m -20.8,-0.6505 c -0.792,-0.15255 -2.088,-0.15255 -2.88,0 -0.792,0.15255 -0.144,0.27736 1.44,0.27736 1.584,0 2.232,-0.12481 1.44,-0.27736 z m -114.97009,-3.1616 c -1.74381,-0.94445 -8.63728,-5.75633 -10.54311,-7.35944 l -0.87318,-0.73449 1.09078,-0.61043 1.09077,-0.61043 2.98242,0.41107 c 1.64032,0.22608 6.0064,1.23893 9.7024,2.25076 3.696,1.01183 9.168,2.308 12.16,2.88035 2.992,0.57237 6.85112,1.32122 8.57582,1.66412 1.7247,0.3429 3.26137,0.49791 3.41481,0.34446 0.64712,-0.64711 -2.67738,-1.7309 -7.01395,-2.28657 -2.56118,-0.32817 -8.11268,-1.5054 -12.33668,-2.61607 -4.224,-1.11067 -9.408,-2.41376 -11.52,-2.89575 l -3.84,-0.87634 -3.65808,0.65021 -3.65808,0.6502 -2.645546,-1.34966 c -7.196935,-3.6716 -12.727309,-12.23336 -12.751367,-19.74081 l -0.0069,-2.1621 -2.024237,-3.538 c -1.113331,-1.9459 -2.246361,-4.57296 -2.517843,-5.83791 -0.271482,-1.26494 -0.822438,-3.5959 -1.224346,-5.1799 -0.401907,-1.584 -0.588032,-3.78489 -0.413612,-4.89086 0.368,-2.33345 3.357158,-8.99343 4.770605,-10.62914 0.5323,-0.616 0.67982,-1.12 0.32782,-1.12 -1.069107,0 -2.416934,2.01181 -4.609126,6.87971 l -2.089427,4.63969 0.21008,2.37287 0.210086,2.37286 -1.6,0.86243 -1.6,0.86244 -4.8,-0.39918 c -2.64,-0.21954 -6.96,-0.61439 -9.6,-0.87745 l -4.800001,-0.47828 -4.16,-2.25526 C 38.434173,174.39213 32.134598,169.76516 22.335615,159.98916 l -8.064386,-8.04548 -2.042014,-4.27866 c -1.123108,-2.35326 -2.644121,-6.74259 -3.3800295,-9.75409 -0.7359085,-3.01149 -1.4629575,-5.35049 -1.6156647,-5.19778 -0.1527065,0.1527 0.04217,1.46536 0.4330599,2.91701 1.2479872,4.63467 -0.3978612,5.28012 -2.8396021,1.11361 l -1.6269785,-2.77623 v -2.93071 c 0,-1.61189 0.5407254,-4.17859 1.2016121,-5.70377 L 5.6032244,122.56 11.495756,116.58748 c 3.240893,-3.28489 5.718881,-6.14617 5.506641,-6.35842 -0.212241,-0.21224 -1.512288,0.71401 -2.888994,2.05833 l -2.503103,2.44421 -1.077454,-0.41346 -1.077455,-0.41346 0.2440748,-6.59356 0.2440749,-6.59355 2.9504393,-5.823349 C 19.406296,82.04071 28.096079,71.953574 44.141243,58.622269 49.60756,54.080516 57.392001,47.166911 61.440002,43.258701 l 7.36,-7.105835 4.579961,-2.399782 c 2.518983,-1.319881 7.125377,-3.137413 10.23643,-4.038962 6.030195,-1.747482 10.653414,-4.068091 16.036147,-8.049294 1.8329,-1.355656 3.52904,-2.464828 3.76922,-2.464828 0.24017,0 1.90384,-0.902752 3.69703,-2.006115 4.47452,-2.753198 21.49447,-9.4324239 26.96121,-10.5805205 l 4.48,-0.9408676 13.76,0.012857 c 7.568,0.00707 14.30206,-0.1487257 14.96457,-0.3462155 L 168.48913,4.980066 167.6362,4.4529268 C 167.16709,4.1630003 160.14503,4.0641632 152.03164,4.2332888 L 137.28,4.54079 132.2955,5.8102755 c -2.74147,0.6982173 -6.48547,1.9447773 -8.32,2.7701335 -1.83452,0.8253561 -4.4875,1.859556 -5.8955,2.298223 -4.02294,1.253358 -12.34778,5.568958 -17.6,9.123845 -6.72001,4.548343 -13.632241,7.974241 -17.850206,8.847063 -1.974387,0.40856 -5.813478,1.859586 -8.531315,3.2245 l -4.941517,2.481664 -8.818482,8.406449 c -4.850163,4.623547 -10.258479,9.526778 -12.018479,10.896068 -1.76,1.369291 -4.928,3.832501 -7.04,5.4738 -2.112,1.6413 -7.296,6.459576 -11.52,10.707288 l -7.68,7.723104 -3.946225,5.946342 c -2.170424,3.27049 -5.183858,8.444717 -6.696521,11.498279 l -2.7502973,5.551936 -0.2599418,5.94337 -0.2599424,5.94336 0.8106125,1.95699 0.8106125,1.957 -2.6702983,2.72083 -2.6702982,2.72084 -1.263851,3.32619 C 2.488733,127.15695 1.92,129.81411 1.92,131.23236 v 2.57864 l 1.2839293,2.5167 c 0.7061611,1.38419 2.1072105,3.46072 3.1134431,4.61451 1.0062329,1.15378 2.7924998,3.82579 3.9694836,5.93779 5.274926,9.46542 18.063667,21.93506 30.216509,29.46255 1.68485,1.04359 3.98885,2.54318 5.12,3.33239 1.958209,1.36628 3.006395,1.9018 9.221523,4.71136 l 2.684888,1.2137 h 3.178813 c 3.904526,0 12.166574,1.53731 15.876411,2.95412 l 2.753101,1.05142 2.464179,4.56842 2.46418,4.56843 0.382816,3.23228 c 0.210547,1.77775 1.176333,5.21443 2.146176,7.63707 l 1.763366,4.4048 3.240589,3.10169 3.240595,3.10169 6.921288,3.46896 c 3.80671,1.90793 7.98271,4.29757 9.28,5.31031 2.77787,2.16857 4.67115,3.28427 5.55871,3.27572 0.352,-0.003 -0.19253,-0.45707 -1.21008,-1.00818 z M 316.5972,215.56 l -0.33614,-0.84 -0.0505,1.22667 c -0.0278,0.67466 0.12348,1.05266 0.33614,0.84 0.21267,-0.21267 0.2354,-0.76467 0.0505,-1.22667 z m 3.40281,0.38667 c 0,-0.55734 -0.34201,-0.89934 -0.76,-0.76 -1.1867,0.39556 -1.38353,1.77333 -0.25333,1.77333 0.55733,0 1.01333,-0.456 1.01333,-1.01333 z M 37.120001,153.94252 c 0,-0.16362 -0.648,-0.64277 -1.44,-1.06479 l -1.44,-0.76729 0.878365,1.06478 c 0.817808,0.99137 2.001635,1.44518 2.001635,0.7673 z m -5.226222,-5.53339 C 28.432974,144.14207 27.378765,142.98021 27.893197,144 c 0.63474,1.25828 5.414656,7.04 5.820179,7.04 0.1728,0 -0.646018,-1.18389 -1.819597,-2.63087 z M 27.10085,141.7324 c -0.208438,-0.54318 -0.516239,-0.85035 -0.684001,-0.68258 -0.167762,0.16776 -0.115186,0.61218 0.116836,0.9876 0.631072,1.0211 0.999923,0.82273 0.567165,-0.30502 z M 25.840001,137.68 c -0.224889,-1.12444 -0.542295,-1.91104 -0.705348,-1.74799 -0.163052,0.16306 -0.09765,1.20165 0.145348,2.30799 0.576487,2.62473 1.093536,2.10768 0.56,-0.56 z M 24.761169,132 c -0.160978,-0.616 -0.292686,-0.112 -0.292686,1.12 0,1.232 0.131708,1.736 0.292686,1.12 0.160978,-0.616 0.160978,-1.624 0,-2.24 z m 2.123903,-10.40994 c 0.715519,-1.40253 1.137841,-2.55006 0.938493,-2.55006 -0.707004,0 -3.490153,6.74502 -3.433024,8.32 l 0.05804,1.6 0.567775,-2.40994 c 0.312276,-1.32547 1.1532,-3.55747 1.868719,-4.96 z M 32.921018,113.28 c 2.329734,-2.816 3.96202,-5.12 3.627302,-5.12 -0.698681,0 -5.188319,5.08402 -5.188319,5.8752 0,0.28864 -0.936,0.52921 -2.08,0.5346 l -2.08,0.01 0.891775,0.56469 0.891775,0.56469 -0.351859,1.34551 C 28.43817,117.79452 28.371027,118.4 28.482486,118.4 c 0.111459,0 2.108799,-2.304 4.438532,-5.12 z m -9.341291,-1.23249 -3.508648,-2.51248 -0.755539,-2.52177 c -0.415547,-1.38697 -0.805855,-3.92835 -0.867352,-5.64751 L 18.336376,98.24 l -0.251878,2.86103 c -0.138532,1.57356 0.09871,4.11318 0.527195,5.6436 l 0.779072,2.78257 3.264618,2.50595 c 1.79554,1.37828 3.527502,2.51066 3.848805,2.51641 0.321302,0.006 -0.994705,-1.12018 -2.924461,-2.50205 z m 2.467109,-23.732073 c 1.969078,-1.799629 5.482073,-4.248647 7.806654,-5.442266 2.324581,-1.193619 4.002298,-2.184384 3.72826,-2.201696 -1.487882,-0.094 -8.821516,4.375539 -11.862629,7.22976 -3.409385,3.199866 -7.173727,8.291373 -7.145001,9.664064 0.0078,0.371085 0.886771,-0.822112 1.953346,-2.651558 1.066575,-1.82944 3.550291,-4.798675 5.51937,-6.598304 z M 51.00117,84 c -0.160978,-0.616 -0.292687,-0.112 -0.292687,1.12 0,1.232 0.131709,1.736 0.292687,1.12 0.160977,-0.616 0.160977,-1.624 0,-2.24 z m 2.71036,-10.601664 c 0.378659,-0.990912 0.672983,-2.286912 0.654054,-2.88 C 54.30936,68.756883 51.902348,76.873158 51.553638,80 l -0.321181,2.88 0.8953,-3.84 c 0.492416,-2.112 1.205113,-4.650746 1.583773,-5.641664 z m -10.177928,5.561549 c 1.429727,-0.572064 2.485535,-1.15408 2.346241,-1.293376 -0.139294,-0.139296 -1.519242,0.308416 -3.066552,0.994905 -3.426325,1.520154 -2.88921,1.742714 0.720311,0.298471 z M 61.038963,58.88 c 0.582581,-1.232 0.695143,-1.688933 0.250138,-1.015407 -0.445005,0.673525 -2.033099,3.052324 -3.5291,5.286218 -1.496,2.233893 -2.72,4.249714 -2.72,4.479595 0,0.726164 4.892132,-6.409758 5.998962,-8.750406 z m 96.302837,5.668013 c 1.63801,-1.458597 4.7782,-3.477465 6.9782,-4.486375 l 4,-1.834382 V 39.353628 20.48 h -2.49738 -2.4974 l -0.7026,2.015503 c -0.38644,1.108526 -0.70262,2.692526 -0.70262,3.52 V 27.52 h -1.088 -1.088 l 0.768,0.768 c 0.84471,0.844705 1.02084,4.256575 0.27821,5.388977 -0.6184,0.942944 -8.25901,4.155852 -10.71021,4.503678 l -1.92,0.27245 -2.56,-2.457613 c -1.408,-1.351686 -3.2308,-2.918724 -4.05068,-3.482305 l -1.49067,-1.024694 -1.64356,0.852685 c -0.90395,0.468977 -4.1816,3.104066 -7.28367,5.855754 L 125.49131,43.2 l -0.0257,1.117686 c -0.0141,0.614727 1.42316,3.148105 3.19392,5.62973 l 3.21955,4.512045 -0.17955,1.615704 -0.17957,1.615705 3.52,1.495394 c 1.936,0.822466 6.832,2.940979 10.88,4.707806 4.048,1.766826 7.60381,3.233456 7.90179,3.259172 0.29799,0.02573 1.88199,-1.146637 3.52,-2.605229 z m -83.237171,-20.438615 3.655373,-3.31343 -2.56,1.953931 c -2.60521,1.988438 -10.166381,9.628775 -11.865068,11.989298 -0.514213,0.714559 0.876152,-0.639305 3.089695,-3.008586 2.213549,-2.369282 5.669549,-5.798827 7.68,-7.621213 z m 16.341761,-7.08529 2.033612,-0.09589 -1.699814,-0.26081 c -1.91024,-0.293097 -10.020653,1.991024 -11.836775,3.33357 -0.650873,0.481153 1.213466,0.02977 4.142976,-1.003075 2.929517,-1.032845 6.241517,-1.921051 7.360001,-1.973792 z m 6.193612,-4.800232 c 0,-0.462963 -2.46654,1.027138 -2.923155,1.765951 -0.238944,0.386618 0.321018,0.207947 1.244359,-0.397048 0.923334,-0.604995 1.678796,-1.221002 1.678796,-1.368903 z m 3.786668,-1.910567 c 0.87829,-0.768422 -1.204824,-0.0548 -2.224344,0.761997 l -1.242324,0.995306 1.600001,-0.761996 c 0.88,-0.419099 1.719997,-0.866987 1.866667,-0.995307 z M 103.68,29.12 c 0.88,-0.503053 1.312,-0.914643 0.96,-0.914643 -0.352,0 -1.36,0.41159 -2.24,0.914643 -0.88,0.503053 -1.312,0.914643 -0.96,0.914643 0.352,0 1.36,-0.41159 2.24,-0.914643 z m 7.83136,-2.890972 c 2.37125,-0.824802 4.19969,-1.611317 4.06319,-1.747813 -0.30975,-0.309753 -9.97455,3.091486 -9.97455,3.510247 0,0.168016 0.36,0.177621 0.8,0.02134 0.44,-0.156277 2.74012,-0.958977 5.11136,-1.783778 z m 42.39105,-2.118003 C 151.82638,22.714884 142.97644,21.744144 133.44,21.866528 l -8.96,0.114987 11.52,0.466739 11.52,0.46674 3.2,0.965275 c 4.09226,1.234425 4.74525,1.281773 3.18241,0.230756 z M 121.92,23.05346 l 2.56,-0.621052 -3.2,0.36461 c -1.76,0.200535 -3.632,0.6292 -4.16,0.952588 l -0.96,0.587979 1.6,-0.331536 c 0.88,-0.182346 2.752,-0.61101 4.16,-0.952589 z M 339.32801,244.352 c -0.4224,-0.4224 -0.768,-1.56776 -0.768,-2.54525 v -1.77724 l 1.57684,-1.03318 1.57684,-1.03319 1.94583,0.97071 1.94583,0.97071 6.15669,-0.92489 c 3.38617,-0.50869 6.49255,-1.13522 6.90306,-1.39228 0.41051,-0.25707 4.36045,-4.21139 8.77764,-8.78739 l 8.03125,-8.32 3.30432,-11.90111 3.30432,-11.90111 -0.39673,-2.8945 -0.39674,-2.89451 0.71543,-0.44215 c 1.15473,-0.71367 0.84009,-1.27898 -1.21924,-2.19052 -1.06407,-0.471 -2.36007,-1.67901 -2.88,-2.68445 -1.13587,-2.19652 -1.23568,-5.82531 -0.18903,-6.87196 l 0.7563,-0.7563 -1.94192,0.73299 c -2.38016,0.89841 -3.63943,0.46625 -5.08933,-1.74658 l -1.11322,-1.69899 0.75021,-1.98755 0.75022,-1.98754 -5.3661,-17.94786 c -2.95135,-9.87132 -6.15028,-20.65326 -7.10873,-23.95985 l -1.74264,-6.012 -2.24523,-2.94141 -2.24523,-2.94141 -1.97872,-0.6466 -1.97873,-0.64659 -0.98159,-1.76 -0.9816,-1.76 0.98038,-1.76 0.98038,-1.76 2.59496,-0.19169 2.59496,-0.19168 0.8699,1.04816 c 0.47844,0.5765 0.8392,2.10276 0.80167,3.39169 l -0.0682,2.34352 2.23845,2.7354 2.23845,2.7354 4.66097,15.1846 c 2.56354,8.35153 5.91504,19.44778 7.44779,24.65833 l 2.7868,9.47374 1.61675,0.78109 1.61676,0.78109 v 2.6612 2.6612 l 1.02353,-0.92792 1.02354,-0.92791 -11.1748,-37.26811 c -6.14613,-20.49746 -11.28496,-37.38634 -11.41961,-37.53086 -0.13464,-0.1445 -0.77326,0.2155 -1.41913,0.8 L 355.41922,102.4 h -2.25041 -2.25041 l -1.0592,-1.17039 -1.05919,-1.1704 v -2.307056 -2.30706 l -4.34006,-5.322547 C 342.07292,87.195149 336.50762,80.336 332.09264,74.88 c -4.415,-5.456 -9.54619,-11.792 -11.40265,-14.08 -1.85647,-2.288 -7.11002,-8.793343 -11.67456,-14.456319 l -8.29915,-10.296319 -3.63814,-1.133102 c -2.00097,-0.623207 -13.96478,-4.732591 -26.58625,-9.131966 l -22.94811,-7.998864 -20.25017,1.463204 -20.25018,1.463205 -1.11159,1.413159 c -0.61137,0.777237 -1.83863,1.595634 -2.72723,1.81866 l -1.61565,0.405501 -1.91448,-0.990015 -1.91447,-0.990014 v -2.827275 -2.827274 l 1.4224,-0.99629 c 0.78232,-0.54796 2.22232,-0.996291 3.2,-0.996291 h 1.7776 l 1.26838,1.268382 1.26838,1.268382 20.72221,-1.56429 20.72222,-1.564291 18.4894,6.435613 c 10.16918,3.539588 22.52141,7.808404 27.44941,9.486258 l 8.96,3.050644 5.44,6.703553 c 30.89567,38.071826 40.13106,49.477119 42.05019,51.930111 l 1.4102,1.802476 1.38541,-0.208422 1.38542,-0.208416 -8.87561,-10.955744 c -4.88159,-6.025658 -15.84446,-19.585821 -24.36195,-30.133696 -8.51748,-10.547874 -15.86148,-19.478765 -16.32,-19.846424 -0.45851,-0.36766 -6.88166,-2.602235 -14.27366,-4.965724 -7.392,-2.363488 -20.928,-6.709267 -30.08,-9.657286 l -16.64,-5.360035 -32.35625,-1.940546 C 194.00783,9.1932454 178.81583,8.32 178.04376,8.32 H 176.64 v 5.030462 5.030462 l 3.66578,0.378342 3.66578,0.378341 0.7564,1.034446 c 0.41603,0.568945 0.94157,2.814984 1.16789,4.991196 0.22632,2.176213 0.56963,4.7779 0.7629,5.781525 l 0.35141,1.824775 2.97492,1.244389 c 1.63621,0.684414 3.47501,1.519265 4.08624,1.855226 1.94281,1.067868 2.92577,0.690871 7.58516,-2.909164 l 4.55581,-3.52 h 1.61205 1.61206 l 5.43638,5.28 c 5.98518,5.813012 8.85055,9.719862 8.56636,11.68 -0.10207,0.704 -1.60162,3.136918 -3.33236,5.406484 -1.73072,2.269566 -3.12852,4.573566 -3.10621,5.12 0.0223,0.546434 0.82035,2.577516 1.77342,4.513516 l 1.73286,3.52 5.51404,0.661434 5.51403,0.661433 1.09453,0.908371 1.09452,0.908378 -0.22198,10.773824 -0.22198,10.773824 -0.96,0.60695 c -0.97295,0.615136 -2.37367,0.900576 -7.8253,1.594644 l -3.0253,0.385164 -0.70521,2.618944 c -0.38786,1.440416 -1.37849,4.141344 -2.20138,6.002054 l -1.49617,3.38311 3.46668,4.46161 3.46668,4.4616 v 2.21113 2.21112 l -5.28,5.06056 c -2.904,2.78331 -6.35709,5.87895 -7.67352,6.87921 l -2.39351,1.81866 -1.54332,-0.38735 c -0.84884,-0.21304 -3.13634,-1.685 -5.08333,-3.27101 -1.947,-1.58602 -3.76458,-2.88366 -4.03907,-2.88366 -0.27449,0 -3.01083,1.04111 -6.08075,2.31357 l -5.58167,2.31357 -0.82501,5.82902 -0.82501,5.82902 -1.13741,1.13741 -1.13741,1.13741 -8.16,-0.0369 c -4.488,-0.0203 -9.312,-0.2378 -10.72,-0.48335 l -2.56,-0.44647 -0.60103,-2.03644 -0.60104,-2.03644 -1.79835,0.35966 c -0.98909,0.19782 -5.5039,0.004 -10.0329,-0.43175 l -8.23455,-0.79142 -5.68607,0.73559 -5.68606,0.7356 -5.74605,2.91083 c -7.28152,3.68866 -15.36068,9.00026 -18.25395,12.00096 -1.232,1.27775 -3.46411,3.34986 -4.960247,4.60469 l -2.720243,2.28152 -1.279757,-0.40618 -1.279751,-0.40618 v -1.75132 -1.75133 l 2.309786,-2.20554 c 3.136141,-2.99464 5.370212,-6.61984 5.370212,-8.71419 v -1.73406 l -3.158513,-2.91866 c -1.737184,-1.60526 -4.833184,-3.89851 -6.88,-5.09611 -2.046816,-1.19759 -5.192563,-3.11736 -6.990554,-4.26615 -1.797984,-1.1488 -5.325984,-3.12457 -7.84,-4.39061 l -4.570931,-2.30188 v -1.19359 c 0,-0.65648 0.441139,-1.5597 0.980307,-2.00718 l 0.980307,-0.81358 2.421236,0.72542 c 1.33168,0.39898 4.85054,2.2121 7.819693,4.02915 2.969152,1.81705 6.702233,4.00027 8.295737,4.85161 1.593504,0.85133 6.045473,4.07288 9.893258,7.159 l 6.99597,5.61114 4.18674,-2.46769 c 6.74553,-3.97584 11.566,-6.02005 16.2955,-6.91042 l 4.42874,-0.83374 9.33126,0.4181 c 9.38712,0.42061 13.0609,0.76575 14.69726,1.38072 l 0.88599,0.33298 -0.35218,-2.62577 c -0.19371,-1.44418 -0.44841,-2.70002 -0.566,-2.79077 -0.1176,-0.0908 -2.74804,-1.37808 -5.84542,-2.86073 l -5.6316,-2.69573 -4.17561,3.28148 -4.17561,3.28149 -2.08967,0.33911 -2.08967,0.3391 -6.01908,-6.20006 c -3.3105,-3.41004 -6.57741,-7.17702 -7.2598,-8.37106 l -1.24072,-2.17099 0.87193,-1.62922 c 0.47956,-0.89607 2.11607,-3.08676 3.63668,-4.86821 1.52061,-1.78144 2.76475,-3.73555 2.76475,-4.34246 0,-0.60691 -0.59337,-2.86053 -1.3186,-5.008048 l -1.31859,-3.904576 -1.40141,-0.340506 c -0.77077,-0.187277 -3.2734,-0.534509 -5.5614,-0.771622 -2.288,-0.237114 -4.808,-0.837389 -5.6,-1.33394 l -1.44,-0.902828 0.0153,-8.785242 c 0.0135,-7.781478 0.56325,-13.097101 1.44573,-13.979584 0.16112,-0.161114 2.89571,-0.613402 6.07688,-1.005082 l 5.78394,-0.71214 0.68537,-1.504224 c 0.37695,-0.827322 1.05154,-1.508628 1.49909,-1.514018 L 127.04,63.980399 126.08,63.36 c -3.06418,-1.980225 -8.9758,0.534056 -17.28,7.349376 -8.03296,6.592717 -12.97603,11.748806 -16.344849,17.049229 -1.650438,2.596768 -3.616026,5.404109 -4.367974,6.238528 -1.579847,1.753139 -5.381133,3.524166 -9.011828,4.198637 -1.388563,0.257952 -3.980563,1.213171 -5.76,2.12271 l -3.235347,1.65371 -4.16,0.0539 -4.16,0.0539 v -1.53024 c 0,-0.841643 0.432,-1.735608 0.96,-1.986597 2.261772,-1.075142 11.493145,-4.051187 14.867174,-4.792941 2.016948,-0.443411 4.373773,-1.269177 5.237389,-1.83504 1.585351,-1.038764 4.855437,-4.943852 4.855437,-5.798291 0,-0.254259 0.758387,-1.456595 1.685312,-2.671853 l 1.685312,-2.209555 -0.413587,-3.017414 -0.413581,-3.017415 -2.528422,-2.250323 C 86.304399,71.732608 83.572124,68.581709 81.623304,65.968288 L 78.080002,61.216656 V 59.088328 56.96 h 1.911411 1.911411 l 0.903572,2.162548 c 0.49696,1.189403 3.225997,4.513241 6.064525,7.38631 l 5.160953,5.223756 0.41529,2.213696 c 0.22841,1.21753 0.560749,2.21369 0.738522,2.21369 0.177779,0 2.078892,-1.625427 4.224697,-3.612064 2.145807,-1.986637 4.654817,-4.074637 5.575577,-4.64 0.92076,-0.565363 3.04919,-2.242291 4.72984,-3.726509 l 3.05572,-2.698569 0.48982,-9.985008 0.48982,-9.985007 0.65061,-0.650607 c 0.35783,-0.357834 1.33182,-0.554224 2.16442,-0.436422 L 118.08,40.64 l -0.24399,9.540703 -0.24399,9.540704 1.20399,-0.466151 c 0.66219,-0.256383 2.51699,-0.6233 4.12175,-0.815372 l 2.91776,-0.34922 14.79387,6.474667 c 8.13664,3.561069 14.96845,6.474669 15.1818,6.474669 0.21336,0 1.24096,-0.971565 2.28357,-2.159034 1.04261,-1.187462 3.47882,-2.987462 5.4138,-4 L 167.0267,63.04 l 1.12665,0.721096 1.12665,0.721099 -0.0195,1.604896 -0.0195,1.604896 0.81948,-0.31447 0.81943,-0.314464 0.01,-31.451526 0.01,-31.451527 0.5774,-0.9123482 0.57741,-0.9123483 13.01279,0.7585905 c 7.15704,0.4172248 22.9488,1.331383 35.0928,2.0314626 12.144,0.7000796 22.944,1.540934 24,1.8685653 1.056,0.3276307 9.984,3.1904221 19.84,6.3617581 9.856,3.171336 23.91402,7.687119 31.24004,10.035074 7.32603,2.347955 13.58701,4.597563 13.9133,4.999128 0.32628,0.401565 6.8684,8.506118 14.53803,18.010118 7.66964,9.504 18.92328,23.447974 25.00809,30.986605 6.08481,7.53863 11.56496,14.73863 12.17809,16 0.61314,1.261369 6.42651,20.077395 12.91861,41.813395 l 11.80381,39.52 h 0.71371 c 0.39253,0 1.47254,0.5969 2.40001,1.32645 l 1.68631,1.32645 v 4.32199 4.32199 l -1.48125,1.39156 -1.48125,1.39156 -1.87875,0.0872 -1.87875,0.0872 1.6,0.29737 c 0.88,0.16355 1.81159,0.62833 2.0702,1.03284 0.84428,1.32061 0.51447,3.82514 -0.68137,5.17423 -1.06272,1.19889 -2.17853,4.80528 -6.6463,21.48125 l -1.45747,5.44 -9.28253,9.40188 -9.28253,9.40188 -7.36,1.04366 -7.36,1.04366 -0.5118,0.91446 -0.5118,0.91446 h -2.0802 c -1.14411,0 -2.4258,-0.3456 -2.8482,-0.768 z m 4.992,-2.67364 c 0,-0.13289 -0.504,-0.63689 -1.12,-1.12 l -1.12,-0.87836 0.87836,1.12 c 0.83608,1.06608 1.36164,1.40511 1.36164,0.87836 z m 43.93789,-56.1596 c 0.42891,-0.35596 0.96061,-1.47029 1.18157,-2.47627 l 0.40172,-1.82906 -1.00864,-1.95051 -1.00864,-1.9505 -2.03964,-0.52852 -2.03964,-0.52852 -0.54723,-2.20769 c -0.30097,-1.21423 -1.37526,-4.94369 -2.3873,-8.28769 -1.01204,-3.344 -4.47156,-14.864 -7.68781,-25.6 -3.21624,-10.736 -6.82254,-22.688 -8.01398,-26.56 -1.19144,-3.872 -2.9078,-9.61837 -3.81412,-12.76971 -0.90633,-3.15134 -2.14429,-6.546194 -2.75102,-7.544127 -0.60674,-0.997939 -12.33516,-15.759257 -26.06316,-32.802941 l -24.96,-30.988515 -2.88,-0.920477 C 282.95022,21.641951 245.07108,9.418937 243.84001,8.9550029 242.55299,8.4699878 180.71933,4.48 174.48998,4.48 H 172.8 v 32.059917 32.059917 l -1.3601,0.355673 c -3.06775,0.80224 -6.74873,3.297274 -8.47037,5.741376 l -1.83047,2.598611 -0.32421,2.876365 -0.3242,2.876359 0.79191,2.399545 c 0.43556,1.319751 1.79719,3.51225 3.02585,4.872231 l 2.23392,2.472684 3.25988,0.968077 3.25987,0.968083 2.26896,-0.409958 c 4.81456,-0.869882 8.94237,-4.518733 10.32232,-9.12457 l 0.75109,-2.506918 -0.43441,-2.896806 c -0.7333,-4.89001 -4.97155,-9.568999 -9.49004,-10.476935 L 174.72,68.96 V 37.979914 6.9998272 l 0.96809,-0.371488 c 0.53245,-0.2043187 16.30045,0.5427552 35.04,1.6601638 l 34.07192,2.031653 15.04,4.81001 c 8.272,2.645505 22.12896,7.105758 30.79324,9.911671 l 15.75324,5.101662 11.25647,13.888251 c 17.90511,22.091341 36.4135,45.013805 38.71871,47.952736 l 2.12132,2.704487 9.58473,31.855517 c 5.27159,17.52053 10.78794,35.84514 12.25856,40.72135 l 2.67384,8.86584 -1.71806,1.25152 -1.71807,1.25152 -0.40058,2.13525 -0.40057,2.13525 0.74898,1.39947 c 0.41193,0.76972 1.64985,1.77827 2.75093,2.24124 l 2.00195,0.84176 1.60668,-0.61086 c 0.88368,-0.33598 1.95761,-0.90211 2.38652,-1.25807 z m -6.67548,-0.27505 -1.42241,-0.99629 v -2.158 -2.15799 l 1.00571,-1.00571 c 0.55314,-0.55315 1.48914,-1.03888 2.08001,-1.07942 3.64386,-0.24998 5.23428,0.97636 5.23428,4.03602 V 183.68 l -1.28,1.28 c -1.5344,1.5344 -3.67746,1.64264 -5.61759,0.28371 z m 4.20959,-1.69171 c 1.12205,-1.12205 0.93818,-2.93589 -0.36852,-3.63521 l -1.13654,-0.60826 -1.10347,0.61754 c -1.85105,1.0359 -0.98247,4.39393 1.13653,4.39393 0.3872,0 1.0496,-0.3456 1.472,-0.768 z M 168.96,92.722733 c -2.04444,-0.812832 -4.97623,-3.588794 -6.13714,-5.810951 C 162.3263,85.961261 161.92,83.700787 161.92,81.888506 v -3.29506 l 1.03646,-2.18416 c 1.37441,-2.896371 4.17124,-5.16871 7.47265,-6.071308 L 173.12,69.602291 176,70.342797 c 5.01478,1.289401 8.11635,4.403629 8.95538,8.99191 l 0.48882,2.673159 -0.5869,2.612102 c -0.78668,3.501254 -2.68518,6.02377 -5.6857,7.554522 L 176.691,93.44 173.6255,93.39942 c -1.68602,-0.0223 -3.7855,-0.326816 -4.6655,-0.676691 z m 8.94725,-2.323725 c 1.22498,-0.615456 2.88098,-2.0976 3.68,-3.293651 L 183.04,84.930707 V 82.08208 c 0,-5.18032 -2.474,-8.269024 -7.86083,-9.813946 l -2.04495,-0.586483 -2.24711,0.718003 c -4.37811,1.398912 -7.04711,5.057504 -7.04711,9.66 v 2.763213 l 1.55343,2.286074 c 2.82309,4.154541 8.05521,5.530144 12.51382,3.290067 z m 197.61267,83.947572 c -0.60989,-0.6099 -1.83263,0.37798 -1.37811,1.11341 l 0.40267,0.65154 0.6851,-0.6851 c 0.3768,-0.3768 0.50746,-0.86274 0.29034,-1.07985 z M 109.12,147.38954 c 2.112,-1.3947 6.73797,-4.1677 10.27993,-6.16221 l 6.43993,-3.6264 3.80007,-0.70341 c 4.80233,-0.88895 12.77036,-1.03847 21.40007,-0.40156 l 6.72,0.49597 -1.24728,-0.759 -1.24728,-0.75899 -12.51272,-0.057 -12.51272,-0.057 -4.60537,1.68382 c -2.53295,0.92611 -7.05495,3.15811 -10.04889,4.96 -2.99394,1.8019 -5.76482,3.27618 -6.1575,3.27618 -0.39269,0 -2.35068,-1.43807 -4.3511,-3.19571 -4.35037,-3.82237 -10.641464,-8.57029 -12.890398,-9.72844 -0.892692,-0.45972 -3.783898,-2.16177 -6.424909,-3.78234 -6.532692,-4.00858 -10.191361,-5.82142 -11.089639,-5.49482 -0.413709,0.15042 0.111808,0.66195 1.167808,1.13673 4.027917,1.81098 19.402733,11.33501 23.198362,14.37038 l 3.969236,3.1742 0.4248,2.82623 0.4248,2.82624 -1.5286,2.84302 c -0.84073,1.56365 -2.608597,3.77547 -3.928597,4.91515 -1.320001,1.13968 -2.400001,2.46932 -2.400001,2.95474 0,0.48542 2.088001,-1.161 4.639998,-3.65871 2.552,-2.49772 6.368,-5.68243 8.48,-7.07713 z m 72.63633,-6.57373 0.95632,-0.60458 0.96368,-6.22928 0.96367,-6.22927 3.52,-1.3741 c 1.936,-0.75575 4.8722,-1.9961 6.52489,-2.75634 1.65269,-0.76023 3.3213,-1.38224 3.70804,-1.38224 0.38673,0 2.43348,1.44 4.54834,3.2 2.11485,1.76 4.19815,3.2 4.62956,3.2 1.24642,0 3.56766,-1.83107 9.22918,-7.28027 2.904,-2.79509 5.28,-5.47759 5.28,-5.96109 0,-0.4835 -1.63714,-3.05424 -3.63809,-5.71273 l -3.63808,-4.83363 1.17677,-2.98614 c 0.64724,-1.64238 1.81231,-4.85814 2.58907,-7.14614 l 1.41228,-4.16 5.2738,-0.758106 c 2.90059,-0.41696 5.45922,-0.943539 5.68585,-1.170169 0.22664,-0.226631 0.51623,-4.682899 0.64354,-9.902816 l 0.23148,-9.490752 -1.18831,-0.613319 c -0.65357,-0.337324 -2.77231,-0.805952 -4.70831,-1.041401 -1.936,-0.235443 -4.41347,-0.586112 -5.50548,-0.779251 l -1.98548,-0.351175 -2.12828,-5.154818 -2.12827,-5.154818 0.91375,-1.492291 c 0.50257,-0.820761 2.15743,-3.065125 3.67748,-4.987477 l 2.76372,-3.495186 -1.15701,-1.80421 C 218.93594,42.127287 209.98235,32.732556 208.5431,31.954127 l -1.05691,-0.571632 -4.99352,3.828752 c -2.74644,2.105814 -5.36045,3.828753 -5.80891,3.828753 -0.70697,0 -4.02281,-1.385567 -9.79531,-4.093096 -1.8584,-0.871666 -2.3993,-2.375913 -2.90806,-8.08738 -0.20481,-2.299262 -0.57284,-4.504828 -0.81785,-4.901258 -0.24501,-0.396431 -1.52915,-0.924082 -2.85364,-1.172558 l -2.40817,-0.451776 0.16964,19.024616 0.16963,19.024615 3.52,1.311499 3.52,1.311499 3.89601,3.896917 3.89601,3.896922 1.43803,3.84 1.43804,3.84 0.0111,4.8 0.0111,4.8 -1.4492,3.84 -1.4492,3.84 -3.89601,3.896006 -3.896,3.896004 -3.77949,1.41224 -3.77949,1.41223 -4.89229,0.0108 -4.89229,0.0108 -3.80822,-1.42298 -3.80822,-1.42299 -3.89601,-3.896004 -3.89601,-3.896006 -1.38399,-3.704006 -1.38399,-3.704013 v -4.811975 -4.81198 l -3.04,-1.315661 c -1.672,-0.723616 -6.036,-2.747277 -9.69778,-4.497031 -3.66178,-1.749747 -7.39294,-3.460876 -8.29149,-3.802502 l -1.63371,-0.621133 -0.98851,1.237754 -0.98851,1.237753 -5.32301,0.65273 c -2.92764,0.359002 -5.44109,0.770829 -5.58543,0.915168 -1.21606,1.216064 -2.09581,19.305357 -0.97264,19.999507 0.3294,0.203584 3.22069,0.759866 6.42507,1.236179 3.20438,0.476314 6.02262,1.062496 6.26276,1.302624 0.71283,0.712839 3.4617,8.204866 3.79959,10.355806 l 0.3125,1.98921 -3.57942,4.01153 c -1.96869,2.20634 -3.57835,4.33519 -3.57703,4.73078 10e-4,0.39559 0.55563,1.58326 1.23182,2.63926 1.64361,2.56682 11.11226,12.48392 11.90151,12.46518 0.34335,-0.008 2.92705,-1.73615 5.74156,-3.84 2.8145,-2.10385 5.43967,-3.82518 5.83369,-3.82518 0.39402,0 1.4081,0.54408 2.25351,1.20908 0.8454,0.66499 3.40423,1.98771 5.6863,2.93936 2.28207,0.95165 4.40378,1.97252 4.7149,2.2686 0.31113,0.29609 0.7929,3.03114 1.0706,6.0779 0.27769,3.04677 0.61868,5.65335 0.75774,5.79241 1.10621,1.10622 18.13082,1.90931 19.6823,0.92846 z M 352.64001,112.64 c 0,-0.352 -0.288,-0.64 -0.64,-0.64 -0.352,0 -0.64,0.288 -0.64,0.64 0,0.352 0.288,0.64 0.64,0.64 0.352,0 0.64,-0.288 0.64,-0.64 z M 182.07904,100.44293 c 3.95872,-1.938629 7.82387,-5.815685 9.91021,-9.940728 l 1.58924,-3.142202 0.236,-5.269491 0.236,-5.269485 -1.88053,-4.018605 -1.88053,-4.018605 -2.64603,-2.593753 c -2.30831,-2.262714 -6.21888,-4.4942 -9.8834,-5.639765 L 176.64,60.200173 176.50025,47.860086 176.36049,35.52 l -0.22341,8.64 c -0.12288,4.752 -0.0328,11.861324 0.2003,15.798497 l 0.42371,7.158495 1.85771,0.647603 c 3.20222,1.116301 6.21708,3.89609 7.90992,7.293165 l 1.63128,3.273562 v 2.840083 c 0,6.063571 -2.88386,11.064774 -7.9019,13.703494 L 177.6,96.272653 h -4.16 -4.16 l -2.65973,-1.398586 c -1.46285,-0.769222 -3.33726,-2.264313 -4.16535,-3.322419 l -1.50562,-1.923834 0.005,2.066093 0.005,2.066093 h -1.8993 -1.89929 l -1.84849,-3.614438 -1.8485,-3.614445 -0.0922,-3.745555 c -0.0507,-2.060058 0.11874,-4.495604 0.37657,-5.412314 l 0.4688,-1.666752 -7.44877,-3.299942 c -4.09682,-1.814964 -7.54947,-3.199232 -7.67254,-3.076154 -0.12308,0.123078 2.29791,1.328794 5.37997,2.679373 3.08207,1.350573 5.92971,2.699891 6.3281,2.998483 l 0.72434,0.542893 0.27845,5.904429 0.27845,5.904422 1.65094,3.2 c 2.77302,5.374912 7.48087,9.366182 13.30348,11.27856 0.88,0.28903 3.90569,0.44491 6.72375,0.34641 l 5.12375,-0.17911 3.19154,-1.56293 z M 72.923093,98.258701 c 1.643181,-0.832659 4.123693,-1.726695 5.512256,-1.986746 5.791092,-1.08455 7.723527,-2.643936 12.639623,-10.199533 2.723603,-4.185932 8.579021,-10.3019 16.126958,-16.844556 1.75894,-1.524679 2.19007,-2.017568 0.95807,-1.095322 -3.98673,2.984384 -7.89646,6.372077 -10.187735,8.827456 -2.198509,2.355968 -4.528794,3.177971 -4.535834,1.6 -0.0019,-0.44 -0.316557,-1.927302 -0.699104,-3.30512 l -0.695539,-2.505114 -4.72576,-4.695193 c -2.599168,-2.582355 -5.295847,-5.775052 -5.992608,-7.094881 -0.696768,-1.319831 -1.279578,-2.089068 -1.29513,-1.709417 -0.05434,1.326586 4.116506,7.020131 7.84448,10.708311 l 3.75872,3.718592 0.584256,2.037184 c 0.321338,1.120454 0.584256,3.227827 0.584256,4.683046 v 2.645862 l -1.006777,0.835552 c -0.553728,0.459552 -1.563495,1.92681 -2.24393,3.26057 -0.680435,1.33376 -2.084403,3.389984 -3.119936,4.569389 l -1.882778,2.144371 -2.753293,0.798771 c -1.514304,0.439328 -5.345286,1.665159 -8.513286,2.724071 -3.168,1.058912 -6.768,2.180524 -8,2.492467 l -2.24,0.567159 3.447744,-0.33149 c 1.896262,-0.182325 4.792173,-1.012764 6.435347,-1.845429 z M 351.68001,96 c 0.21755,-0.352 0.0906,-0.64 -0.28223,-0.64 -0.37277,0 -0.67777,0.288 -0.67777,0.64 0,0.352 0.127,0.64 0.28223,0.64 0.15522,0 0.46022,-0.288 0.67777,-0.64 z M 158.08516,89.147328 156.65165,86.72 l -0.33434,-3.675898 -0.33434,-3.675891 1.13899,-2.982406 c 1.40175,-3.670426 4.84527,-7.577383 8.17641,-9.2768 1.37812,-0.703066 2.36167,-1.422298 2.18567,-1.598298 -0.65261,-0.652608 -5.40521,2.318349 -7.60665,4.755091 -1.25142,1.385172 -2.57989,2.706733 -2.95216,2.936807 -0.37227,0.230073 -7.61783,-2.610394 -16.10126,-6.312147 L 125.39956,60.16 l -2.05977,0.08011 -2.05979,0.08011 2.56,0.438949 c 2.28347,0.391533 30.55733,12.377939 31.89958,13.523488 l 0.53958,0.460505 -0.75352,3.629677 -0.75351,3.62967 0.73227,3.052468 c 0.77571,3.233497 3.03617,7.497798 3.64943,6.884537 0.20067,-0.200672 -0.28023,-1.457152 -1.06867,-2.792179 z m 0.80561,-8.827328 0.34747,-3.84 -0.53413,1.28 c -0.51412,1.232013 -0.86615,7.211968 -0.39246,6.666669 C 158.43906,84.28 158.69966,82.432 158.89077,80.32 Z m 4.0295,-8.8 1.87973,-2.08 -2.08,1.879738 C 160.78115,73.071917 160.34583,73.6 160.84027,73.6 c 0.11014,0 1.04614,-0.936 2.08,-2.08 z M 133.76,66.56 c -0.528,-0.341222 -1.248,-0.620397 -1.6,-0.620397 -0.352,0 -0.208,0.279175 0.32,0.620397 0.528,0.341222 1.248,0.620397 1.6,0.620397 0.352,0 0.208,-0.279175 -0.32,-0.620397 z m -17.36447,-4.532206 -0.76079,-0.470197 0.0241,-8.538799 0.0241,-8.538798 -0.45391,9.007021 c -0.24964,4.953861 -0.66466,9.348047 -0.92227,9.764856 l -0.46836,0.757838 1.65893,-0.755863 1.65894,-0.755861 -0.7608,-0.470197 z M 116.27719,42.76 l -0.33614,-0.84 -0.0505,1.226667 c -0.0278,0.674666 0.12347,1.052666 0.33614,0.84 C 116.43936,43.774 116.4621,43.222 116.27719,42.76 Z M 204.87942,18.389333 204.08417,17.6 l 0.43698,1.147602 c 0.24034,0.631181 0.5982,0.986381 0.79525,0.789333 0.19705,-0.197048 4.1e-4,-0.713468 -0.43698,-1.147602 z m 3.92059,0.386807 c -0.44,-0.177544 -1.16,-0.177544 -1.6,0 -0.44,0.177544 -0.08,0.322807 0.8,0.322807 0.88,0 1.24,-0.145263 0.8,-0.322807 z m 8.96,-0.64 c -0.44,-0.177544 -1.16,-0.177544 -1.6,0 -0.44,0.177544 -0.08,0.322807 0.8,0.322807 0.88,0 1.24,-0.145263 0.8,-0.322807 z m 8.96,-0.64 c -0.44,-0.177544 -1.16,-0.177544 -1.6,0 -0.44,0.177544 -0.08,0.322807 0.8,0.322807 0.88,0 1.24,-0.145263 0.8,-0.322807 z m 8.62666,-0.602807 c -0.21266,-0.212666 -0.76467,-0.235403 -1.22666,-0.05053 l -0.84,0.33614 1.22666,0.05053 c 0.67467,0.02779 1.05267,-0.123474 0.84,-0.336141 z m 8.32001,-0.64 c -0.21267,-0.212666 -0.76468,-0.235403 -1.22667,-0.05053 l -0.84,0.33614 1.22667,0.05053 c 0.67466,0.02779 1.05266,-0.123474 0.84,-0.336141 z M 356.84572,233.23428 c -1.27465,-1.27464 -1.2998,-4.36876 -0.0457,-5.62285 l 0.96,-0.96 0.005,-3.08571 0.005,-3.08572 6.05861,-6.08 6.05861,-6.08 1.31698,-3.9046 1.31698,-3.9046 -0.60776,-1.59851 -0.60775,-1.59851 0.76204,-1.53689 0.76204,-1.53689 2.34672,-0.19633 2.34673,-0.19634 1.05163,1.605 1.05164,1.60499 -0.41091,1.29465 c -0.226,0.71205 -1.12555,1.85678 -1.999,2.54384 l -1.5881,1.24919 -1.26762,3.75363 -1.26762,3.75363 -6.06645,6.04123 -6.06645,6.04123 v 2.31345 2.31344 l 1.28,1.15839 1.28,1.15839 V 230.4 c 0,3.28288 -4.36996,5.13862 -6.67429,2.83428 z m 2.63546,-9.71428 c -0.16098,-0.616 -0.29269,-0.112 -0.29269,1.12 0,1.232 0.13171,1.736 0.29269,1.12 0.16097,-0.616 0.16097,-1.624 0,-2.24 z m 4.03883,-6.24 c 1.91195,-1.936 3.33227,-3.52 3.15627,-3.52 -0.176,0 -1.88432,1.584 -3.79627,3.52 -1.91195,1.936 -3.33228,3.52 -3.15628,3.52 0.176,0 1.88433,-1.584 3.79628,-3.52 z m 6.12026,-6.24 1.87974,-2.08 -2.08,1.87974 c -1.144,1.03385 -2.08,1.96985 -2.08,2.08 0,0.49444 0.52808,0.0591 2.28026,-1.87974 z m -204.35621,12.95055 c -1.84577,-0.26936 -4.06029,-0.66653 -4.92115,-0.88259 l -1.56521,-0.39284 -0.4247,-2.83212 c -0.23358,-1.55767 -0.25014,-3.11458 -0.0367,-3.45981 0.72104,-1.16667 -0.31968,-2.4974 -2.843,-3.63527 l -2.51138,-1.13247 -2.5572,1.69227 c -1.40649,0.93076 -3.08291,1.69228 -3.72541,1.69228 -2.08026,0 -9.09927,-8.56931 -9.09927,-11.10904 0,-0.72435 1.01234,-2.35372 2.24964,-3.62083 l 2.24963,-2.30384 -0.59672,-1.88314 c -0.3282,-1.03573 -0.76827,-2.66819 -0.97794,-3.62769 l -0.38123,-1.74454 -3.55391,-1.03315 c -1.95465,-0.56823 -3.70894,-1.43714 -3.89841,-1.9309 l -0.34451,-0.89776 -1.69327,0.40626 c -0.93131,0.22345 -2.76423,0.94263 -4.07317,1.5982 l -2.37991,1.19193 -5.26911,10.90731 -5.2691,10.90731 -1.631,-0.19006 L 110.4,211.52 l -0.21799,-1.54291 -0.218,-1.5429 3.2924,-6.7771 c 1.81082,-3.72739 3.96536,-8.08872 4.78786,-9.69182 l 1.49547,-2.91472 -1.36987,-1.31052 -1.36987,-1.31053 -5.12,-1.43426 c -2.816,-0.78884 -6.128,-1.77944 -7.36,-2.20135 l -2.24,-0.76709 v -1.8934 -1.8934 l 1.92,0.0917 c 1.056,0.0504 2.928,0.38177 4.16,0.73627 13.30813,3.82925 17.18962,4.44943 22.42533,3.58308 l 2.26533,-0.37484 0.73678,-3.87693 c 0.40523,-2.1323 1.11383,-4.11605 1.57468,-4.40831 0.46083,-0.29226 2.29685,-0.5358 4.08003,-0.54119 l 3.24215,-0.01 1.33589,-2.4 1.33589,-2.4 -1.85281,-3.2 c -1.01906,-1.76 -1.85517,-3.67816 -1.85804,-4.26258 l -0.005,-1.06258 4.88254,-3.89742 c 2.68529,-2.14359 5.42772,-3.89743 6.09419,-3.89743 0.66647,0 2.45843,1.14914 3.98213,2.55364 l 2.77037,2.55363 2.90826,-0.99094 2.90826,-0.99094 0.42215,-2.81512 c 0.23218,-1.54831 0.92181,-3.43215 1.53249,-4.18631 l 1.11034,-1.37122 5.86787,0.71347 c 3.22732,0.3924 6.31189,0.88384 6.85458,1.0921 l 0.98671,0.37864 v 3.71933 3.71932 l 2.33295,1.44185 2.33295,1.44183 3.04138,-1.70964 c 1.67275,-0.9403 3.61165,-1.70964 4.30866,-1.70964 h 1.26729 l 3.03851,3.68 c 1.67118,2.024 3.49227,4.62538 4.04687,5.78085 l 1.00836,2.10086 -2.25978,2.25977 -2.25978,2.25978 1.32537,3.78326 1.32536,3.78326 2.74906,0.41225 c 1.51198,0.22673 3.34328,0.89342 4.06956,1.48153 l 1.3205,1.06928 -0.71346,5.86786 c -0.39241,3.22733 -0.8756,6.29039 -1.07377,6.8068 l -0.3603,0.93893 -2.49596,0.42169 c -1.37278,0.23193 -3.43821,0.23926 -4.58986,0.0163 l -2.0939,-0.40542 2.74242,1.29024 2.74243,1.29024 16.45757,1.63631 c 9.05167,0.89998 23.58542,2.35265 32.29722,3.22818 l 15.83965,1.59187 8.99995,-2.67528 8.99995,-2.67528 0.89673,-1.7341 c 1.00806,-1.94937 2.11683,-2.5292 4.83642,-2.5292 h 1.86766 l 1.28,1.28 1.28,1.28 v 2.24 2.24 l -1.28,1.28 -1.28,1.28 h -1.96208 c -1.07914,0 -2.51179,-0.2942 -3.18368,-0.65379 l -1.2216,-0.65377 -9.37714,2.6928 -9.37713,2.6928 -8.07919,-0.78484 c -4.44355,-0.43166 -19.62189,-1.92684 -33.72964,-3.32263 l -25.65046,-2.53781 -11.93528,-5.43565 -11.93527,-5.43564 -2.09427,1.27687 -2.09427,1.27687 -2.30535,0.003 -2.30535,0.003 -2.16533,-1.45921 c -2.65972,-1.79238 -3.76219,-3.86091 -3.77453,-7.08204 -0.0182,-4.74553 3.41087,-8.09908 8.28109,-8.09908 5.08238,0 8.34947,3.11283 8.34947,7.95521 v 2.25877 l 2.41939,1.23428 2.41939,1.23429 -0.40932,-4.46565 -0.40933,-4.46565 -1.85006,-2.62649 -1.85007,-2.62649 -2.88,-1.53954 -2.88,-1.53954 -3.52,0.24791 -3.52,0.24792 -2.41343,1.56249 -2.41343,1.56249 -1.60772,3.24971 -1.60771,3.24971 -0.0579,2.8869 -0.0579,2.88689 1.12255,2.36559 c 1.41126,2.97401 4.73759,5.74945 8.09688,6.75592 l 2.58921,0.77575 2.48624,-0.42005 c 1.36742,-0.23102 3.51086,-1.11538 4.76318,-1.96523 1.25234,-0.84986 2.73335,-1.54519 3.29114,-1.54519 1.46127,0 12.49617,5.5071 14.18202,7.0777 2.18333,2.0341 4.58697,6.16051 4.58697,7.87465 v 1.53777 l -4.21227,3.59587 c -2.31675,1.97772 -4.93207,3.77652 -5.81183,3.99733 l -1.59956,0.40146 -2.66817,-2.5497 -2.66817,-2.54968 -3.48291,1.04582 -3.4829,1.04582 -0.77614,3.04245 c -0.42687,1.67335 -1.12683,3.46502 -1.55546,3.98148 l -0.77932,0.93903 -2.00164,-0.0798 c -1.1009,-0.0439 -3.51181,-0.30023 -5.35758,-0.5696 z m 7.42709,-3.67055 c 0.33028,-1.32 0.76283,-3.12813 0.96124,-4.01807 l 0.36076,-1.61807 3.38342,-0.70842 c 1.86089,-0.38963 3.99618,-0.90987 4.74509,-1.15608 l 1.36165,-0.44767 2.63041,2.65683 2.63041,2.65683 0.80794,-0.48188 c 1.08362,-0.64631 5.58663,-4.07609 7.32877,-5.58206 l 1.40083,-1.21094 -1.66153,-2.64523 c -2.34931,-3.74022 -4.24056,-5.22618 -10.28364,-8.07983 l -5.3035,-2.50441 -2.95182,1.5695 -2.95182,1.5695 h -4.02301 c -2.21266,0 -4.72977,-0.26871 -5.59358,-0.59713 -2.46237,-0.93619 -6.14198,-4.4743 -7.57545,-7.28414 l -1.30726,-2.56245 0.0414,-3.46921 0.0414,-3.46921 1.54623,-3.37739 1.54621,-3.37739 2.15732,-1.61233 c 1.18653,-0.88678 3.27876,-1.97199 4.64943,-2.41157 l 2.4921,-0.79924 3.55299,0.3667 3.55299,0.3667 2.57703,1.8112 c 1.41737,0.99616 3.38768,2.96462 4.37847,4.37435 l 1.80145,2.56314 0.45643,4.05458 0.45643,4.05458 6.4,2.89577 6.4,2.89576 2.88,0.25696 c 1.584,0.14133 3.26616,-0.005 3.73814,-0.32506 l 0.85813,-0.58202 0.67306,-5.27217 0.67305,-5.27217 -0.89119,-0.55545 c -0.49016,-0.30551 -2.10591,-0.73917 -3.59057,-0.96371 -2.92428,-0.44226 -3.63082,-1.01236 -4.29937,-3.4691 -0.23948,-0.88 -0.89851,-2.68898 -1.46453,-4.01996 l -1.02913,-2.41996 2.02621,-2.09051 c 1.11447,-1.14978 2.02626,-2.5544 2.02626,-3.12137 0,-0.56698 -1.34756,-2.71326 -2.99457,-4.76953 -1.64701,-2.05627 -3.10292,-3.87458 -3.23535,-4.04069 -0.13243,-0.16611 -1.63533,0.48189 -3.33976,1.44 -3.72178,2.09212 -3.9928,2.10674 -7.50826,0.40493 l -2.76207,-1.33709 -0.01,-3.30291 c -0.005,-1.8166 -0.23905,-3.66399 -0.51924,-4.1053 l -0.50945,-0.80238 -4.76075,-0.61785 c -2.61842,-0.33982 -5.10966,-0.62675 -5.53609,-0.63762 -0.70014,-0.0178 -1.22423,1.4208 -2.35084,6.45319 l -0.37452,1.67296 -3.83667,1.07652 -3.83666,1.07651 -1.13299,-0.6144 c -0.62315,-0.33791 -1.95821,-1.4816 -2.96681,-2.54153 l -1.83381,-1.92715 -1.11466,0.43207 c -1.49751,0.58048 -8.26927,6.05561 -8.30743,6.71675 -0.0166,0.28859 0.83372,1.78048 1.88972,3.31532 1.056,1.53484 1.92,3.10831 1.92,3.49659 0,0.38828 -0.72485,2.13639 -1.61078,3.88468 l -1.61079,3.17873 h -3.79913 -3.79914 l -0.66652,2.4 c -0.36657,1.32 -0.67253,2.976 -0.67988,3.68 -0.007,0.704 -0.27491,1.69333 -0.59458,2.19851 l -0.58122,0.91851 -6.92898,0.0415 c -3.81095,0.0229 -7.79299,-0.17623 -8.84899,-0.44234 -1.056,-0.2661 -1.488,-0.30701 -0.96,-0.0909 1.28155,0.52453 4.48062,4.08359 4.47761,4.98147 -0.001,0.3923 -0.57883,1.65872 -1.28337,2.81428 -1.64907,2.70475 -4.56807,9.87252 -3.83629,9.42026 0.30755,-0.19008 1.1445,-1.90997 1.85987,-3.82199 0.71538,-1.91201 2.11755,-4.78879 3.11594,-6.39284 l 1.81524,-2.91646 2.40287,-1.22504 c 1.32157,-0.67378 3.5574,-1.42011 4.9685,-1.65851 l 2.56563,-0.43347 0.82267,1.12506 c 0.45246,0.61879 2.35889,1.58811 4.2365,2.15404 l 3.41384,1.02897 1.27916,4.92958 1.27917,4.92959 -2.35867,2.29071 c -1.29726,1.25991 -2.35867,2.52689 -2.35867,2.81554 0,0.62092 6.40485,9.01357 6.87872,9.01357 0.17901,0 1.84705,-0.87056 3.70676,-1.93457 l 3.38127,-1.93458 3.09663,1.81632 3.09662,1.81631 0.19011,3.94159 0.19011,3.94159 2.36989,0.64857 c 2.83828,0.77674 4.8666,1.10064 7.62523,1.21761 l 2.05533,0.0872 z M 113.87697,206.4 c 0.001,-0.352 -0.42052,-0.081 -0.93732,0.60232 -0.51681,0.68328 -0.92944,1.69128 -0.91697,2.24 l 0.0227,0.99768 0.91464,-1.6 c 0.50306,-0.88 0.91569,-1.888 0.91697,-2.24 z m 151.25522,0.5402 c -0.4333,-0.17531 -1.2973,-0.18598 -1.92,-0.0238 l -1.13218,0.29507 1.92,0.0237 c 1.056,0.0131 1.56548,-0.11971 1.13218,-0.29503 z m -7.04,-0.64 c -0.4333,-0.17531 -1.2973,-0.18598 -1.92,-0.0237 l -1.13218,0.29507 1.92,0.0237 c 1.056,0.0131 1.56548,-0.11971 1.13218,-0.29503 z m -6.4,-0.64 c -0.4333,-0.17531 -1.2973,-0.18598 -1.92,-0.0238 l -1.13218,0.29507 1.92,0.0237 c 1.056,0.0131 1.56547,-0.11971 1.13218,-0.29503 z m -6.41218,-0.64406 c -0.44,-0.17754 -1.16,-0.17754 -1.6,0 -0.44,0.17754 -0.08,0.32281 0.8,0.32281 0.88,0 1.24,-0.14527 0.8,-0.32281 z m -6.08,-0.65731 c -0.616,-0.16097 -1.624,-0.16097 -2.24,0 -0.616,0.16098 -0.112,0.29269 1.12,0.29269 1.232,0 1.736,-0.13171 1.12,-0.29269 z M 115.7164,202.54307 c -0.19705,-0.19705 -0.55491,0.15815 -0.79525,0.78933 l -0.43698,1.1476 0.79525,-0.78933 c 0.43739,-0.43414 0.63403,-0.95055 0.43698,-1.1476 z m 116.76361,1.19307 c -0.44,-0.17754 -1.16,-0.17754 -1.6,0 -0.44,0.17754 -0.08,0.32281 0.8,0.32281 0.88,0 1.24,-0.14527 0.8,-0.32281 z m -6.38783,-0.63594 c -0.43329,-0.17531 -1.29729,-0.18598 -1.92,-0.0238 l -1.13217,0.29507 1.92,0.0237 c 1.056,0.0131 1.56547,-0.11971 1.13217,-0.29503 z m 67.74947,-0.7002 0.87836,-1.12 -1.12,0.87836 c -1.06608,0.83608 -1.40511,1.36164 -0.87836,1.36164 0.13289,0 0.63689,-0.504 1.12,-1.12 z m -74.48164,0.0388 c -0.616,-0.16097 -1.624,-0.16097 -2.24,0 -0.616,0.16098 -0.112,0.29269 1.12,0.29269 1.232,0 1.736,-0.13171 1.12,-0.29269 z m -6.06783,-0.61863 c -0.43329,-0.17531 -1.29729,-0.18598 -1.92,-0.0238 l -1.13217,0.29507 1.92,0.0237 c 1.056,0.0131 1.56547,-0.11971 1.13217,-0.29503 z m 75.34783,-0.20012 c 0,-0.34094 -0.432,-0.45413 -0.96,-0.25152 -0.528,0.20261 -0.96,0.48157 -0.96,0.61991 0,0.13834 0.432,0.25153 0.96,0.25153 0.528,0 0.96,-0.27896 0.96,-0.61992 z m -82.4,-0.44394 c -0.44,-0.17754 -1.16,-0.17754 -1.6,0 -0.44,0.17754 -0.08,0.32281 0.8,0.32281 0.88,0 1.24,-0.14527 0.8,-0.32281 z m 85.88621,-0.9108 c -0.20606,-0.33342 -0.64745,-0.43762 -0.98087,-0.23155 -0.33343,0.20606 -0.43762,0.64745 -0.23156,0.98087 0.20606,0.33342 0.64746,0.43762 0.98088,0.23155 0.33342,-0.20606 0.43762,-0.64745 0.23155,-0.98087 z M 200.32001,199.68 c -0.528,-0.34122 -1.248,-0.6204 -1.6,-0.6204 -0.352,0 -0.208,0.27918 0.32,0.6204 0.528,0.34122 1.248,0.6204 1.6,0.6204 0.352,0 0.208,-0.27918 -0.32,-0.6204 z M 193.92,196.8 c -0.88,-0.50305 -1.888,-0.91464 -2.24,-0.91464 -0.352,0 0.08,0.41159 0.96,0.91464 0.88,0.50305 1.888,0.91464 2.24,0.91464 0.352,0 -0.08,-0.41159 -0.96,-0.91464 z m -5.12,-2.24 c -0.528,-0.34122 -1.248,-0.6204 -1.6,-0.6204 -0.352,0 -0.208,0.27918 0.32,0.6204 0.528,0.34122 1.248,0.6204 1.6,0.6204 0.352,0 0.208,-0.27918 -0.32,-0.6204 z m -3.84,-1.53153 c 0,-0.13834 -0.44695,-0.42304 -0.99324,-0.63267 l -0.99324,-0.38114 0.39102,0.63267 c 0.37584,0.60813 1.59546,0.89949 1.59546,0.38114 z M 172,192.19883 c -0.616,-0.16097 -1.624,-0.16097 -2.24,0 -0.616,0.16098 -0.112,0.29269 1.12,0.29269 1.232,0 1.736,-0.13171 1.12,-0.29269 z m 5.25764,-5.84207 -0.38561,-3.50326 -1.75171,-1.50675 c -0.96343,-0.82871 -2.38363,-1.48078 -3.156,-1.44903 l -1.40432,0.0577 2.05133,0.59315 c 1.12822,0.32622 2.49622,1.22833 3.04,2.00468 1.25465,1.79127 1.27392,5.55468 0.0374,7.31996 l -0.95122,1.35804 1.45283,-0.68562 1.45283,-0.68563 -0.38561,-3.50326 z m -3.70803,2.66405 c 1.18243,-1.07008 1.54627,-3.78852 0.6806,-5.085 -0.25862,-0.3873 -1.11821,-1.04544 -1.91021,-1.46252 l -1.44,-0.75833 -1.44,0.75833 c -1.84726,0.9728 -2.37806,1.79811 -2.3902,3.71632 -0.0213,3.36236 3.98474,5.10731 6.49981,2.8312 z m -8.32599,-2.20446 -0.2502,-2.62367 1.39998,-2.01633 1.39999,-2.01635 -1.6467,1.79569 -1.64669,1.79569 v 2.41764 c 0,1.94552 0.37426,3.27098 0.92358,3.27098 0.0387,0 -0.0424,-1.18065 -0.17996,-2.62365 z M 113.28,182.6869 c -1.584,-0.4991 -3.168,-0.88993 -3.52,-0.86849 -1.12014,0.0682 3.78482,1.76396 5.12,1.77009 0.704,0.003 -0.016,-0.40249 -1.6,-0.9016 z m -4.53333,-1.15686 C 108.6,181.40355 107.616,181.1068 106.56,180.87059 l -1.92,-0.42947 0.96,0.64964 c 0.86424,0.58484 3.7889,0.99312 3.14667,0.43928 z m 61.32,-1.43671 c -0.21266,-0.21266 -0.76467,-0.2354 -1.22667,-0.0505 l -0.84,0.33614 1.22667,0.0505 c 0.67467,0.0278 1.05267,-0.12347 0.84,-0.33614 z m 172.75253,33.13628 c -0.58256,-0.64372 -1.05919,-1.93972 -1.05919,-2.88 V 208.64 h -1.152 c -0.6336,0 -1.4976,-0.3456 -1.92,-0.768 -0.92938,-0.92938 -1.02168,-4.75968 -0.128,-5.312 l 0.64,-0.39554 -0.003,-10.68223 -0.003,-10.68223 -1.52597,-7.78992 -1.52595,-7.78992 -1.29627,-1.39138 -1.29627,-1.39137 -0.66037,1.23392 c -0.70232,1.31229 -4.97469,6.47152 -14.75561,17.81856 l -6.02533,6.99011 -4.04093,2.88 -4.04092,2.88 -0.0138,1.08371 c -0.0154,1.23571 -2.34703,3.07629 -3.89672,3.07629 -1.40944,0 -3.15678,-2.03954 -3.15678,-3.68468 0,-1.80844 1.65829,-3.35532 3.59698,-3.35532 h 1.58556 l 3.8682,-2.72 3.8682,-2.72 -1.34087,-0.2047 c -1.70749,-0.26066 -2.83871,-2.3491 -2.34274,-4.32516 l 0.38416,-1.53065 1.58917,-0.39885 1.58917,-0.39886 6.97712,-8.16237 c 7.3192,-8.56255 9.26569,-11.33555 18.21366,-25.94733 l 5.49179,-8.96793 -3.64574,-11.93186 -3.64573,-11.93185 -10.41447,15.61395 c -5.72795,8.58768 -10.41446,16.18709 -10.41446,16.88759 v 1.27364 l -1.69906,0.42643 -1.69905,0.42644 -1.02095,-0.63879 c -0.56152,-0.35133 -1.11164,-1.55178 -1.22249,-2.66766 l -0.20156,-2.02889 1.97298,-0.82957 1.97298,-0.82958 6.25004,-9.237 c 3.43753,-5.08035 7.14948,-10.533 8.24879,-12.117 1.09931,-1.584 3.34279,-4.98505 4.98549,-7.55788 l 2.98675,-4.67789 1.06078,0.20429 1.06078,0.20429 4.54772,14.81631 4.54772,14.81631 -0.69546,1.54229 c -0.38251,0.84826 -4.00746,6.96669 -8.05546,13.59649 l -7.36,12.0542 -7.8931,9.23436 c -4.34121,5.0789 -7.76049,9.36697 -7.5984,9.52906 0.16208,0.16209 2.56198,-2.35227 5.3331,-5.58747 2.77112,-3.2352 6.36006,-7.41578 7.97544,-9.29018 2.96489,-3.44033 8.00185,-11.22827 17.59716,-27.208 l 5.23837,-8.72382 -2.92348,-9.83618 -2.92349,-9.83618 -1.4828,-1.16645 -1.4828,-1.16645 v -1.66316 c 0,-0.91473 0.46068,-2.1722 1.02373,-2.79437 l 1.02374,-1.13121 -1.02374,-1.46159 c -0.56305,-0.80387 -1.02373,-2.08348 -1.02373,-2.843592 v -1.382016 l -8.71955,-10.795584 c -4.79575,-5.937568 -9.47575,-11.731572 -10.4,-12.875559 l -1.68045,-2.079981 -3.52,0.02035 -3.52,0.02035 -1.24233,0.939642 c -1.50215,1.136173 -4.29552,1.225798 -5.34967,0.171648 -0.99206,-0.992058 -0.99206,-4.511942 0,-5.504 0.4224,-0.4224 1.68313,-0.768 2.80164,-0.768 h 2.03363 l 0.79673,0.96 0.79673,0.96 4.56163,0.01453 4.56164,0.01453 10.84531,13.425453 10.84532,13.425453 h 1.37549 c 3.11153,0 4.64605,4.518916 2.26595,6.672876 l -1.22793,1.11126 1.22793,1.22793 c 1.40017,1.40018 1.52144,2.44352 0.53551,4.60739 l -0.69241,1.51969 2.93241,9.64839 c 1.61283,5.30663 2.93242,10.18546 2.93242,10.84187 0,0.6564 -0.67642,2.19632 -1.50314,3.42203 -0.82673,1.22571 -4.41439,7.05256 -7.97258,12.94856 l -6.46944,10.72 h 1.87006 1.87006 l 0.69632,1.30109 0.69632,1.30108 -0.77734,2.1497 -0.77734,2.1497 1.45366,7.26922 1.45366,7.26921 -0.1001,10.93676 -0.10009,10.93676 0.93092,0.7726 0.93092,0.7726 0.086,-10.10432 0.086,-10.10432 0.63619,-0.63619 0.63619,-0.63619 9.41685,-0.40404 c 5.17927,-0.22222 9.63285,-0.2812 9.89685,-0.13108 0.264,0.15013 0.48916,5.07997 0.50035,10.9552 l 0.0204,10.68222 0.93964,1.24233 c 0.51681,0.68327 0.93965,2.03494 0.93965,3.00371 v 1.76138 l -1.4224,0.9963 c -0.78232,0.54795 -1.93432,0.99628 -2.56,0.99628 -1.65028,10e-6 -3.69759,-2.30333 -3.69759,-4.15999 0,-0.88 0.576,-2.176 1.28,-2.88 l 1.28,-1.28 v -8.96 -8.96 h -7.29423 -7.29423 l -0.26509,10.72 -0.26509,10.72 1.15932,1.32125 c 0.63762,0.72669 1.15932,2.05005 1.15932,2.9408 0,3.28578 -4.41971,4.99974 -6.62081,2.56756 z m 3.10081,-2.66961 c 0.21755,-0.352 0.0906,-0.64 -0.28223,-0.64 -0.37277,0 -0.67777,0.288 -0.67777,0.64 0,0.352 0.127,0.64 0.28223,0.64 0.15522,0 0.46022,-0.288 0.67777,-0.64 z m 18.06861,-18.08 c -0.13474,-1.496 -0.24499,-0.272 -0.24499,2.72 0,2.992 0.11025,4.216 0.24499,2.72 0.13474,-1.496 0.13474,-3.944 0,-5.44 z m -8.30861,-9.24117 c -0.616,-0.16097 -1.624,-0.16097 -2.24,0 -0.616,0.16098 -0.112,0.29269 1.12,0.29269 1.232,0 1.736,-0.13171 1.12,-0.29269 z m -44.96453,-38.5915 0.39101,-0.63267 -0.99324,0.38114 c -1.10875,0.42547 -1.31161,0.8842 -0.39101,0.8842 0.33122,0 0.77818,-0.2847 0.99324,-0.63267 z m -80.31547,47.53421 c -0.528,-0.19658 -3.08452,-1.35629 -5.68114,-2.57714 l -4.72113,-2.21972 0.4588,-3.29233 c 0.25234,-1.81079 0.50485,-3.83021 0.56114,-4.4876 l 0.10233,-1.19525 -1.74461,-1.31822 -1.74462,-1.31822 -3.20104,0.73889 c -1.76058,0.40639 -3.62888,0.57471 -4.15178,0.37405 -1.11182,-0.42664 -4.83795,-9.70452 -4.83795,-12.04624 v -1.60154 l 2.55507,-1.45911 2.55507,-1.45911 0.005,-3.61328 0.005,-3.61329 -3.26604,-2.0958 -3.26603,-2.09581 0.32866,-2.02534 c 0.18077,-1.11394 1.3068,-4.01684 2.50229,-6.45091 L 209.03289,136 l 1.53562,-0.22179 c 0.8446,-0.12199 2.58339,0.0921 3.86399,0.4758 l 2.32838,0.69759 2.55388,-2.42944 2.55388,-2.42946 -0.65685,-3.97163 -0.65683,-3.97164 0.60272,-0.55466 c 1.10651,-1.01828 9.52824,-4.07881 11.43979,-4.15731 l 1.88611,-0.0775 1.46724,2.56 c 0.80698,1.408 1.54427,2.73231 1.63841,2.94292 0.0941,0.21061 1.78559,0.56824 3.75877,0.79473 l 3.58761,0.41182 1.98596,-3.19474 1.98595,-3.19473 1.78644,0.0236 c 0.98253,0.0129 3.94643,1.10241 6.58643,2.42103 l 4.8,2.39749 0.20886,1.45213 c 0.11487,0.79868 -0.19438,2.66121 -0.68722,4.13897 -0.49285,1.47775 -0.72967,3.35674 -0.52628,4.17553 l 0.3698,1.48871 4.72745,-3.72871 4.72745,-3.7287 7.48268,-11.2 7.48268,-11.2 -0.48694,-1.7958 -0.48693,-1.79581 0.66361,-1.90364 0.66361,-1.903643 1.88981,-0.977254 1.8898,-0.977255 2.21194,0.73001 2.21194,0.730003 0.98947,1.913408 0.98946,1.913411 -0.39687,1.80692 c -0.4804,2.18724 -2.11802,3.76773 -4.57555,4.41591 l -1.82877,0.48234 -7.40703,11.07678 -7.40703,11.07677 -3.47297,2.86201 c -4.35335,3.58752 -5.2475,4.50575 -2.99763,3.07837 l 1.75534,-1.11363 1.54785,0.38849 1.54785,0.38848 1.97681,5.17674 c 1.08686,2.84722 1.97643,5.86729 1.97643,6.71129 v 1.53454 l -3.2,1.62156 -3.2,1.62156 v 3.77045 3.77045 l 2.87885,1.81878 2.87886,1.81876 0.001,1.45597 c 10e-4,1.42987 -3.49938,8.90025 -5.28117,11.27047 l -0.90692,1.20644 -3.35267,-1.11358 -3.35267,-1.11358 -1.71271,1.49755 c -0.942,0.82365 -1.92012,1.65167 -2.1736,1.84003 -0.25349,0.18835 -0.0516,1.89397 0.44863,3.79027 l 0.90952,3.4478 -0.59094,1.10417 c -0.64037,1.19655 -7.28468,4.08473 -11.00076,4.78187 l -2.30174,0.43182 -1.79119,-3.09962 c -2.1908,-3.79113 -2.52573,-4.0375 -5.50566,-4.04981 l -2.37316,-0.01 -1.69635,2.89461 c -1.41501,2.41454 -3.37549,4.30991 -4.23553,4.09486 -0.11114,-0.0278 -0.63407,-0.21136 -1.16207,-0.40793 z m 3.56378,-4.50154 c 0.97097,-1.672 2.02924,-3.21515 2.35169,-3.42922 0.32246,-0.21406 2.07539,-0.29751 3.89541,-0.18544 1.82001,0.11209 3.62538,0.21523 4.01192,0.22922 0.38653,0.014 1.22303,1.1791 1.85885,2.58912 0.63584,1.41003 1.50912,2.85669 1.94063,3.21482 l 0.78456,0.65113 4.71658,-1.71149 c 2.59412,-0.94132 4.92858,-1.89439 5.18769,-2.11793 0.25911,-0.22354 -10e-4,-2.06656 -0.57836,-4.0956 l -1.04948,-3.68917 2.49836,-2.57992 2.49837,-2.57991 2.24,0.35946 c 1.232,0.1977 3.01327,0.53919 3.95838,0.75885 l 1.71839,0.39939 2.28161,-4.53068 c 1.25489,-2.49187 2.28162,-4.81373 2.28162,-5.15967 0,-0.34596 -1.296,-1.38851 -2.88,-2.3168 l -2.88,-1.68779 0.01,-4.57918 c 0.005,-2.51856 0.22139,-4.9005 0.48,-5.29322 0.25861,-0.39271 1.6942,-1.33457 3.1902,-2.093 1.496,-0.75844 2.71758,-1.58913 2.71461,-1.84597 -0.0145,-1.2581 -3.60907,-9.99182 -4.19237,-10.18625 -0.36822,-0.12275 -4.2522,2.66582 -8.63107,6.19681 l -7.96158,6.41997 0.20934,4.07062 0.20934,4.07062 -1.31961,2.48062 c -1.73907,3.26911 -3.21066,4.92551 -6.14519,6.91694 L 244.94139,169.6 h -4.09125 -4.09125 l -2.05944,-0.89315 c -2.857,-1.23902 -6.09866,-4.42147 -7.20788,-7.07619 -0.51236,-1.22625 -0.92524,-3.8948 -0.91751,-5.9301 l 0.0141,-3.70056 1.16548,-2.56549 c 2.98552,-6.57182 11.08715,-9.72837 17.93576,-6.9881 l 2.51526,1.0064 5.45611,-4.3664 5.45611,-4.36641 -0.29666,-0.8999 c -0.16317,-0.49495 0.16454,-2.28848 0.72824,-3.98562 0.5637,-1.69715 0.85961,-3.35319 0.65756,-3.6801 -0.4374,-0.70774 -8.51172,-4.55466 -9.55782,-4.55373 -0.40048,3.6e-4 -1.54518,1.45533 -2.54377,3.23327 l -1.81562,3.23263 -4.58438,-0.4144 -4.5844,-0.4144 -0.96,-1.14879 c -0.528,-0.63183 -1.45007,-2.04338 -2.04903,-3.13678 l -1.08904,-1.98799 -4.67096,1.69458 c -2.56904,0.93202 -4.93496,1.92946 -5.2576,2.21653 l -0.58663,0.52195 0.8092,3.61587 0.80919,3.61587 -3.10257,3.17208 -3.10256,3.17209 -1.92,-0.36225 c -1.056,-0.19924 -2.69898,-0.53929 -3.65106,-0.75566 l -1.73106,-0.39341 -2.42894,4.92149 -2.42894,4.9215 1.36991,1.06759 c 0.75345,0.58716 2.26545,1.55818 3.36,2.15781 l 1.99009,1.09024 v 5.03123 5.03123 l -2.25973,1.07758 c -1.24284,0.59267 -2.42283,1.50266 -2.62219,2.02219 -0.36535,0.95207 2.66146,9.67606 3.54702,10.22337 0.26201,0.16193 1.85014,-0.11902 3.52918,-0.62434 l 3.0528,-0.91875 1.05645,0.57343 c 0.58106,0.31539 1.89582,1.45541 2.92169,2.53337 l 1.86524,1.95994 -0.80225,3.5848 c -0.44123,1.97163 -0.68023,3.7068 -0.53111,3.85592 0.39289,0.39288 9.04483,4.66382 9.54208,4.71034 0.23056,0.0216 1.21362,-1.32878 2.1846,-3.00078 z m 11.87998,-21.02842 c 1.9998,-1.00432 4.81315,-4.22034 6.1568,-7.03801 l 0.96468,-2.02295 -0.45711,-4.26845 -0.45711,-4.26845 -0.84246,0.69918 -0.84246,0.69918 0.30101,3.65396 0.30102,3.65396 -1.2291,2.24 c -0.676,1.232 -2.17842,2.888 -3.33871,3.68 l -2.10962,1.44 h -3.16862 c -1.74276,0 -4.14363,-0.46266 -5.33527,-1.02813 -3.85019,-1.82704 -6.01668,-7.05593 -4.79827,-11.58079 l 0.66673,-2.47601 2.24524,-2.17618 2.24525,-2.17618 3.7445,-0.27086 3.74451,-0.27085 1.98839,1.02824 1.98839,1.02824 1.79423,-1.63269 1.79422,-1.63269 -1.35758,0.77642 -1.35757,0.77643 -2.65538,-1.06248 c -1.46046,-0.58436 -3.85462,-1.06247 -5.32036,-1.06247 h -2.66499 l -2.80429,1.35754 -2.80429,1.35753 -1.64405,2.48432 c -2.02829,3.06497 -2.67152,6.41546 -1.93295,10.06855 l 0.56366,2.78794 2.76095,2.76096 2.76096,2.76096 2.78794,0.5972 c 3.11074,0.66635 5.79364,0.38119 8.31171,-0.88342 z m -7.7416,-4.2877 -2.21784,-0.76388 -1.46216,-2.17464 c -0.80419,-1.19606 -1.46216,-1.81526 -1.46216,-1.376 0,0.43925 0.9792,1.77784 2.176,2.97464 l 2.176,2.176 1.504,-0.0361 1.504,-0.0361 -2.21784,-0.76388 z m 8.37313,-1.64858 2.48471,-2.48471 -0.0855,-2.79529 -0.0855,-2.7953 -0.42136,3.01704 -0.42135,3.01705 -1.53787,1.63698 c -0.84583,0.90033 -2.41773,1.89269 -3.49313,2.20523 l -1.95526,0.56826 1.51529,0.0577 1.51529,0.0577 2.48471,-2.4847 z m -3.62625,-0.34112 c 2.50274,-1.04571 3.55096,-2.66372 3.55096,-5.48119 v -1.99117 l -1.57092,-1.57091 c -1.5278,-1.52781 -2.50334,-1.83299 -5.14908,-1.61083 -1.63945,0.13767 -4.8,3.52203 -4.8,5.1399 0,2.24532 1.53717,4.66946 3.50448,5.52662 2.4061,1.04833 1.92261,1.04968 4.46456,-0.0124 z m -10.08553,-5.962 -0.29503,-1.13218 -0.0238,1.92 c -0.013,1.056 0.11972,1.56548 0.29504,1.13218 0.1753,-0.4333 0.18597,-1.2973 0.0237,-1.92 z m 2.36607,-4.68355 c 0.39073,-0.54524 0.0624,-0.31319 -0.72958,0.51569 -0.792,0.82888 -1.43125,1.851 -1.42054,2.27137 0.0107,0.42037 0.33902,0.18831 0.72959,-0.51569 0.39057,-0.704 1.02981,-1.72611 1.42053,-2.27137 z m 13.19042,0.99137 v -1.6 l -1.12,-0.0204 c -0.616,-0.0112 -1.67905,-0.4432 -2.36233,-0.96 -0.68327,-0.51681 -1.83527,-0.91368 -2.56,-0.88193 l -1.31767,0.0577 1.94003,0.56431 c 2.04406,0.59457 4.77997,2.78398 4.77997,3.82518 0,0.33829 0.144,0.61507 0.32,0.61507 0.176,0 0.32,-0.72 0.32,-1.6 z m 9.76,-8.90189 c 3.784,-3.08006 6.88,-5.73585 6.88,-5.90175 0,-0.1659 -3.6,2.63046 -8,6.21413 -4.4,3.58367 -8,6.667 -8,6.85183 0,0.18484 0.504,-0.0915 1.12,-0.61401 0.616,-0.52255 4.216,-3.47013 8,-6.5502 z m -3.27837,5.54189 0.87837,-1.12 -1.12,0.87836 c -1.06608,0.83608 -1.40511,1.36164 -0.87837,1.36164 0.1329,0 0.6369,-0.504 1.12,-1.12 z m -14.97497,0.0933 c -0.21266,-0.21266 -0.76467,-0.2354 -1.22666,-0.0505 l -0.84,0.33614 1.22666,0.0505 c 0.67467,0.0278 1.05267,-0.12347 0.84,-0.33614 z m 18.81498,-3.29333 0.87836,-1.12 -1.12,0.87836 c -1.06608,0.83608 -1.40511,1.36164 -0.87837,1.36164 0.1329,0 0.6369,-0.504 1.12001,-1.12 z m -5.52164,-1.44 c 0.63711,-0.704 1.01438,-1.28 0.83838,-1.28 -0.176,0 -0.84127,0.576 -1.47838,1.28 -0.63712,0.704 -1.01439,1.28 -0.83839,1.28 0.176,0 0.84127,-0.576 1.47839,-1.28 z m 8.72164,-1.12 0.87836,-1.12 -1.12,0.87836 c -1.06608,0.83608 -1.40511,1.36164 -0.87836,1.36164 0.13289,0 0.63689,-0.504 1.12,-1.12 z m -5.12001,-1.92 0.87837,-1.12 -1.12,0.87836 c -1.06608,0.83608 -1.40511,1.36164 -0.87837,1.36164 0.1329,0 0.6369,-0.504 1.12,-1.12 z m 8.32001,-0.64 0.87836,-1.12 -1.12,0.87836 c -1.06608,0.83608 -1.40511,1.36164 -0.87836,1.36164 0.13289,0 0.63689,-0.504 1.12,-1.12 z m -5.12,-1.92 0.87836,-1.12 -1.12,0.87836 c -1.06608,0.83608 -1.40511,1.36164 -0.87836,1.36164 0.13289,0 0.63689,-0.504 1.12,-1.12 z m 7.59836,-3.04 c 0.82672,-0.88 1.35912,-1.6 1.18312,-1.6 -0.176,0 -0.9964,0.72 -1.82312,1.6 -0.82672,0.88 -1.35913,1.6 -1.18313,1.6 0.176,0 0.99641,-0.72 1.82313,-1.6 z m 3.52,-2.88 c 0.63711,-0.704 1.01438,-1.28 0.83838,-1.28 -0.176,0 -0.84127,0.576 -1.47838,1.28 -0.63712,0.704 -1.01439,1.28 -0.83839,1.28 0.176,0 0.84127,-0.576 1.47839,-1.28 z m 4.0379,-4.48 c 1.09407,-1.76 1.87096,-3.2 1.72641,-3.2 -0.3356,0 -4.16431,5.54892 -4.16431,6.03532 0,0.83885 0.55557,0.1927 2.4379,-2.83532 z m 4.91488,-7.4388 c 0.60499,-0.92334 0.78367,-1.4833 0.39704,-1.24436 -0.73881,0.45662 -2.22891,2.92316 -1.76594,2.92316 0.14789,0 0.7639,-0.75546 1.3689,-1.6788 z m 2.56,-3.84 c 0.60499,-0.92334 0.78367,-1.4833 0.39704,-1.24436 -0.73881,0.45662 -2.22891,2.92316 -1.76594,2.92316 0.14789,0 0.7639,-0.75546 1.3689,-1.6788 z m 2.56,-3.84 c 0.60499,-0.92334 0.78367,-1.4833 0.39704,-1.24436 -0.73881,0.45662 -2.22891,2.92316 -1.76594,2.92316 0.14789,0 0.7639,-0.75546 1.3689,-1.6788 z m 5.41522,-5.44836 1.632,-0.0871 -1.6,-0.29417 c -0.88,-0.16179 -1.888,-0.53008 -2.24,-0.81842 l -0.64,-0.52426 v 1.51359 1.51357 l 0.608,-0.608 c 0.3344,-0.3344 1.3424,-0.64722 2.24,-0.69516 z m -3.37081,-3.87284 -0.33614,-0.84 -0.0505,1.22667 c -0.0278,0.67466 0.12348,1.05266 0.33614,0.84 0.21267,-0.21267 0.2354,-0.76467 0.0505,-1.22667 z m 4.56097,0.28 c -0.11863,-0.616 -0.6398,-1.12 -1.15816,-1.12 -0.51836,0 -1.03954,0.504 -1.15817,1.12 l -0.21569,1.12 h 1.37386 1.37385 z m 2.47903,-0.28 -0.33614,-0.84 -0.0505,1.22667 c -0.0278,0.67466 0.12348,1.05266 0.33614,0.84 0.21267,-0.21267 0.2354,-0.76467 0.0505,-1.22667 z m -224.428104,64.08214 -3.510906,-3.21412 -3.524812,-1.02469 -3.524814,-1.02469 -6.724281,1.08631 -6.724282,1.08631 -2.744452,1.60568 c -1.509449,0.88312 -3.381449,1.51509 -4.16,1.40437 l -1.415548,-0.20131 -0.196588,-1.37952 -0.196587,-1.37953 2.116587,-1.55819 c 2.723962,-2.00533 4.981575,-2.82899 10.116588,-3.6909 2.288,-0.38405 4.688628,-0.85455 5.334727,-1.04556 l 1.174726,-0.3473 -1.277852,-1.3795 c -2.062721,-2.2268 -6.505291,-8.32793 -6.584191,-9.04228 -0.03992,-0.36147 -0.111924,-6.41722 -0.16,-13.45722 l -0.08741,-12.8 -1.821247,-3.28564 c -1.001685,-1.80712 -1.719223,-3.82312 -1.594527,-4.48 l 0.226719,-1.19436 1.673389,-0.19468 1.67339,-0.19468 1.660044,2.83265 c 0.913025,1.55796 1.973693,4.23222 2.357042,5.9428 0.761048,3.39595 0.997191,20.0506 0.321903,22.70312 l -0.419861,1.64921 3.401574,4.58468 3.401574,4.58467 4.160001,2.1938 4.16,2.19381 5.12,0.15051 c 2.816,0.0828 5.624,0.26973 6.24,0.41544 l 1.12,0.26493 v 1.86468 1.86468 l -1.623546,0.40748 c -0.892953,0.22411 -2.548953,0.22952 -3.68,0.012 l -2.056454,-0.39547 2.463635,2.09428 2.463629,2.09427 -0.223629,1.58591 -0.223635,1.58588 -1.6,0.14813 -1.6,0.14813 z m 2.106151,-1.77045 -3.324749,-3.03021 0.520288,-0.84184 0.520288,-0.84185 3.925632,0.22111 c 2.159098,0.12161 3.925101,0.005 3.924461,-0.2589 -6.4e-4,-0.264 -2.624851,-0.48 -5.831578,-0.48 H 65.77917 l -3.845938,-2.04986 -3.845942,-2.04987 -2.457904,-2.91013 C 54.277539,150.74956 52.550764,148.72 51.792109,147.84 l -1.379373,-1.6 1.769032,2.56 c 0.972968,1.408 3.07674,3.92136 4.675048,5.58525 1.598308,1.66389 2.685762,3.24789 2.416564,3.52 -0.269198,0.27211 -2.987835,0.99101 -6.041415,1.59756 -3.05358,0.60655 -3.967964,0.8951 -2.031964,0.64124 1.936,-0.25386 5.536,-0.44721 8.000001,-0.42966 l 4.48,0.0319 2.56,1.37676 c 1.408,0.75722 3.712,2.51385 5.12,3.90363 1.408,1.38978 2.848,2.54224 3.2,2.56103 0.352,0.0188 -0.856141,-1.32942 -2.684755,-2.99604 z m -26.755246,-2.97323 2.56,-0.92227 -1.28,-0.005 c -0.704,-0.003 -2,0.40617 -2.88,0.90922 -2.044429,1.16871 -1.60681,1.17375 1.6,0.0184 z M 49.703861,142.56 c -0.177544,-0.44 -0.322807,-0.08 -0.322807,0.8 0,0.88 0.145263,1.24 0.322807,0.8 0.177544,-0.44 0.177544,-1.16 0,-1.6 z m 0.804424,-15.28625 -0.371717,-5.35375 -0.0048,9.92 -0.0048,9.92 0.376517,-4.56625 c 0.207084,-2.51143 0.209244,-6.97543 0.0048,-9.92 z m -2.161483,-11.38086 c -0.9066,-1.78909 -1.792364,-3.25289 -1.968364,-3.25289 -0.176,0 0.404852,1.43043 1.290782,3.17873 0.885929,1.74829 1.650002,3.83629 1.697938,4.64 l 0.08716,1.46127 0.270426,-1.38711 0.270425,-1.38711 z m 177.523978,-8.96366 -1.87077,-1.87077 V 103.04 101.02154 l 1.87077,-1.870769 C 226.8997,98.121843 228.32493,97.28 229.03795,97.28 h 1.2964 l 5.0809,-10.08 5.0809,-10.08 1.62964,-0.198432 c 0.89631,-0.109133 11.36867,1.839194 23.27193,4.329626 11.90326,2.490425 22.42716,4.689036 23.38646,4.885804 l 1.74417,0.357754 1.43824,-1.007379 C 292.75761,84.933318 294.47667,84.48 295.78672,84.48 h 2.38191 l 1.79569,1.544589 1.79569,1.544582 V 90.56 93.550829 l -1.79569,1.544582 -1.79569,1.544589 h -2.5534 -2.5534 l -1.57091,-1.570912 c -0.864,-0.864 -1.57091,-2.005862 -1.57091,-2.537478 0,-0.531616 -0.51492,-1.242151 -1.14427,-1.578964 C 287.76005,90.409062 245.32369,81.28 243.81254,81.28 c -0.33219,0 -2.59835,3.981126 -5.0359,8.84695 l -4.43192,8.846951 0.57785,0.913049 c 0.31781,0.50218 0.58225,1.951 0.58764,3.2196 l 0.01,2.30654 -1.56944,1.69346 -1.56944,1.69345 h -2.31979 -2.31979 l -1.87077,-1.87077 z m 5.68123,-2.09723 c 1.15319,-1.15319 0.92524,-2.94281 -0.46993,-3.68948 -0.68086,-0.36439 -1.38029,-0.66252 -1.55429,-0.66252 -0.53114,0 -2.32778,1.97587 -2.32778,2.56 0,0.82196 1.89943,2.56 2.79771,2.56 0.43246,0 1.13189,-0.3456 1.55429,-0.768 z m 66.1576,-12.451194 c 1.49508,-1.353017 1.4787,-2.303411 -0.0637,-3.699302 l -1.23413,-1.116877 -1.32655,0.421031 c -0.7296,0.231564 -1.60054,0.932998 -1.93542,1.558739 l -0.60889,1.137709 0.96585,1.378944 c 1.1557,1.649984 2.61068,1.760678 4.20288,0.319756 z M 291.20001,88.96 c 0,-0.352 -0.648,-0.619757 -1.44,-0.595014 l -1.44,0.04499 1.28,0.550035 c 0.704,0.302521 1.352,0.570278 1.44,0.595014 0.088,0.02473 0.16,-0.243027 0.16,-0.595027 z m -3.37333,-1.026669 c -0.21267,-0.212665 -0.76468,-0.235398 -1.22667,-0.0505 l -0.84,0.336141 1.22667,0.0505 c 0.67466,0.02778 1.05266,-0.123475 0.84,-0.336141 z m -3.2,-0.64 c -0.21267,-0.212665 -0.76468,-0.235398 -1.22667,-0.0505 l -0.84,0.336141 1.22667,0.0505 c 0.67466,0.02778 1.05266,-0.123475 0.84,-0.336141 z m -3.2,-0.64 c -0.21267,-0.212665 -0.76468,-0.235398 -1.22667,-0.0505 l -0.84,0.336141 1.22667,0.0505 c 0.67466,0.02778 1.05266,-0.123475 0.84,-0.336141 z m -2.56,-0.64 c -0.21267,-0.212665 -0.76468,-0.235398 -1.22667,-0.0505 l -0.84,0.336141 1.22667,0.0505 c 0.67466,0.02778 1.05266,-0.123475 0.84,-0.336141 z m -3.2,-0.64 c -0.21267,-0.212665 -0.76468,-0.235398 -1.22667,-0.0505 l -0.84,0.336141 1.22667,0.0505 c 0.67466,0.02778 1.05266,-0.123475 0.84,-0.336141 z m -3.2,-0.64 c -0.21267,-0.212665 -0.76468,-0.235398 -1.22667,-0.0505 l -0.84,0.336141 1.22667,0.0505 c 0.67466,0.02778 1.05266,-0.123475 0.84,-0.336141 z m -3.2,-0.64 c -0.21267,-0.212665 -0.76468,-0.235398 -1.22667,-0.0505 l -0.84,0.336141 1.22667,0.0505 c 0.67466,0.02778 1.05266,-0.123475 0.84,-0.336141 z m -5.76,-1.28 c -0.21267,-0.212665 -0.76468,-0.235398 -1.22667,-0.0505 l -0.84,0.336141 1.22667,0.0505 c 0.67466,0.02778 1.05266,-0.123475 0.84,-0.336141 z m -3.2,-0.64 c -0.21267,-0.212665 -0.76468,-0.235398 -1.22667,-0.0505 l -0.84,0.336141 1.22667,0.0505 c 0.67466,0.02778 1.05266,-0.123475 0.84,-0.336141 z m -3.2,-0.64 c -0.21267,-0.212665 -0.76468,-0.235398 -1.22667,-0.0505 l -0.84,0.336141 1.22667,0.0505 c 0.67466,0.02778 1.05266,-0.123469 0.84,-0.336141 z m -5.76,-1.28 c -0.21267,-0.212665 -0.76468,-0.235398 -1.22667,-0.0505 l -0.84,0.336141 1.22667,0.0505 c 0.67466,0.02778 1.05266,-0.123469 0.84,-0.336141 z m -7.42049,-1.403571 c -0.8326,-0.13097 -1.77765,0.02573 -2.1001,0.34816 l -0.5863,0.586298 2.10011,-0.34816 2.10011,-0.34816 z m 4.22049,0.763571 c -0.21267,-0.212665 -0.76468,-0.235398 -1.22667,-0.0505 l -0.84,0.336141 1.22667,0.0505 c 0.67466,0.02778 1.05266,-0.123469 0.84,-0.336141 z m 49.80962,0.244263 c -1.29525,-1.849223 -1.25747,-2.574925 0.28371,-5.450439 l 1.28,-2.388198 v -5.443245 -5.443245 l -4.24985,-4.006233 C 292.93275,54.922805 290.54883,53.12 289.97257,53.12 c -0.57627,0 -1.68784,-0.448331 -2.47016,-0.996291 l -1.4224,-0.99629 v -1.605784 c 0,-0.883181 0.29813,-2.16285 0.66251,-2.843709 L 287.40504,45.44 h 2.13912 2.13912 l 0.7852,0.946113 c 0.43187,0.520361 0.82713,1.716092 0.87837,2.657179 l 0.0932,1.711066 4.64,4.17076 4.64,4.17076 v 7.493696 7.493696 l 0.96,0.79673 c 2.28195,1.893856 0.0545,6.4 -3.16371,6.4 h -1.56371 z m -0.99629,-23.779229 c 0,-0.1329 -0.504,-0.6369 -1.12,-1.12 l -1.12,-0.878365 0.87836,1.12 c 0.83608,1.066079 1.36164,1.405107 1.36164,0.878365 z m -57.94909,17.870723 -1.57091,-1.570906 v -1.899987 -1.899987 l 1.6,-1.901491 1.6,-1.901491 v -6.132093 -6.132092 l 2.08,-1.844757 c 1.144,-1.014616 4.456,-3.917466 7.36,-6.450778 l 5.28,-4.606022 v -1.848452 -1.848451 l 1.4224,-0.99629 c 3.199,-2.240672 6.8976,-0.484617 6.8976,3.274911 v 1.930414 l -1.1704,1.059192 C 261.86589,41.763364 260.81955,42.24 260.1844,42.24 c -0.63515,0 -4.42847,2.76218 -8.4296,6.138178 l -7.27479,6.138178 v 5.270261 5.27026 l 1.6,1.503123 1.6,1.503123 v 2.401984 2.401991 l -1.68631,1.326451 C 245.06623,74.923098 243.46913,75.52 242.44461,75.52 h -1.86279 z m 3.86909,-0.812198 c -1.89758,-0.466432 -2.8709,-1.446669 -2.95424,-2.975252 L 239.85153,68.8 l -0.30186,1.167616 -0.30186,1.167622 1.11529,1.232378 c 0.61341,0.677811 1.71865,1.198976 2.4561,1.158144 l 1.34081,-0.07424 z m 2.40208,-4.75081 -0.5863,-0.586298 0.34816,2.100109 0.34816,2.100109 0.23814,-1.513818 c 0.13097,-0.832595 -0.0257,-1.777644 -0.34816,-2.100102 z M 243.20001,70.4 c 0,-0.352 -0.288,-0.64 -0.64,-0.64 -0.352,0 -0.64,0.288 -0.64,0.64 0,0.352 0.288,0.64 0.64,0.64 0.352,0 0.64,-0.288 0.64,-0.64 z m -0.13966,-2.56 h 1.03566 l -0.71407,-0.714067 -0.71407,-0.714067 -1.49393,1.112812 -1.49393,1.11282 1.17234,-0.398752 c 0.64479,-0.219309 1.63839,-0.398746 2.208,-0.398746 z m -0.69683,-11.98782 -0.29503,-1.13218 -0.0238,1.92 c -0.013,1.056 0.11972,1.565481 0.29504,1.13218 0.1753,-0.433301 0.18597,-1.297301 0.0237,-1.92 z M 244.48001,52.16 c 0.82672,-0.88 1.35912,-1.6 1.18312,-1.6 -0.176,0 -0.9964,0.72 -1.82312,1.6 -0.82672,0.88 -1.35913,1.6 -1.18313,1.6 0.176,0 0.99641,-0.72 1.82313,-1.6 z m 4.8,-4.16 c 0.63711,-0.704 1.01438,-1.28 0.83838,-1.28 -0.176,0 -0.84127,0.576 -1.47838,1.28 -0.63712,0.704 -1.01439,1.28 -0.83839,1.28 0.176,0 0.84127,-0.576 1.47839,-1.28 z m 4.24163,-3.68 0.87837,-1.12 -1.12,0.878365 C 252.21393,44.914441 251.8749,45.44 252.40164,45.44 c 0.1329,0 0.6369,-0.504 1.12,-1.12 z m 4.35108,-3.623022 0.74944,-0.903023 -0.59831,-0.369779 c -0.32908,-0.203379 -0.7481,0.202981 -0.93117,0.903022 -0.39436,1.508073 -0.22952,1.58622 0.78004,0.36978 z m 2.43396,-4.603645 c -0.21267,-0.212666 -0.76468,-0.235403 -1.22667,-0.05053 l -0.84,0.33614 1.22667,0.05053 c 0.67466,0.02779 1.05266,-0.123474 0.84,-0.33614 z"
       id="path220" />
  </g>
</svg>
